2015-01-06 14:34:53,798 - Left side ($name.getComment().length()) of '>' operation has null value. Operation not possible. set.vm [line 1, column 34]
2015-01-06 14:34:53,798 - Left side ($name.getComment().length()) of '>' operation has null value. Operation not possible. set.vm [line 1, column 34]
2015-01-06 14:34:53,798 - ResourceManager : found remove.vm with loader org.apache.velocity.runtime.resource.loader.ClasspathResourceLoader
2015-01-06 14:34:53,798 - Left side ($name.getComment().length()) of '>' operation has null value. Operation not possible. remove.vm [line 1, column 34]
2015-01-06 14:34:53,798 - Left side ($name.getComment().length()) of '>' operation has null value. Operation not possible. remove.vm [line 1, column 34]
2015-01-06 14:34:53,798 - ResourceManager : found removeall.vm with loader org.apache.velocity.runtime.resource.loader.ClasspathResourceLoader
2015-01-06 14:34:53,814 - ResourceManager : found get.vm with loader org.apache.velocity.runtime.resource.loader.ClasspathResourceLoader
2015-01-06 14:34:53,814 - Null reference [template 'get.vm', line 235, column 38] : $type cannot be resolved.
2015-01-06 14:34:53,814 - Null reference [template 'get.vm', line 247, column 35] : $type cannot be resolved.
2015-01-06 14:34:53,814 - Null reference [template 'get.vm', line 257, column 38] : $type cannot be resolved.
2015-01-06 14:34:53,814 - Null reference [template 'get.vm', line 267, column 35] : $type cannot be resolved.
2015-01-06 14:34:53,845 - ResourceManager : found add.vm with loader org.apache.velocity.runtime.resource.loader.ClasspathResourceLoader
2015-01-06 14:34:53,845 - ResourceManager : found set.vm with loader org.apache.velocity.runtime.resource.loader.ClasspathResourceLoader
2015-01-06 14:34:53,845 - ResourceManager : found remove.vm with loader org.apache.velocity.runtime.resource.loader.ClasspathResourceLoader
2015-01-06 14:34:53,845 - ResourceManager : found removeall.vm with loader org.apache.velocity.runtime.resource.loader.ClasspathResourceLoader
2015-01-12 21:19:04,156 - SimpleLog4JLogSystem initialized using logfile 'velocity.log'
2015-01-12 21:19:04,156 - *******************************************************************
2015-01-12 21:19:04,156 - Starting Apache Velocity v1.5 (compiled: 2007-02-22 08:52:29)
2015-01-12 21:19:04,156 - RuntimeInstance initializing.
2015-01-12 21:19:04,156 - Default Properties File: org\apache\velocity\runtime\defaults\velocity.properties
2015-01-12 21:19:04,156 - Trying to use logger class org.apache.velocity.runtime.log.SimpleLog4JLogSystem
2015-01-12 21:19:04,156 - LogSystem has been deprecated. Please use a LogChute implementation.
2015-01-12 21:19:04,156 - Default ResourceManager initializing. (class org.apache.velocity.runtime.resource.ResourceManagerImpl)
2015-01-12 21:19:04,156 - ResourceLoader instantiated: org.apache.velocity.runtime.resource.loader.ClasspathResourceLoader
2015-01-12 21:19:04,156 - ClasspathResourceLoader : initialization complete.
2015-01-12 21:19:04,172 - ResourceCache: initialized (class org.apache.velocity.runtime.resource.ResourceCacheImpl)
2015-01-12 21:19:04,172 - Default ResourceManager initialization complete.
2015-01-12 21:19:04,172 - Loaded System Directive: org.apache.velocity.runtime.directive.Literal
2015-01-12 21:19:04,172 - Loaded System Directive: org.apache.velocity.runtime.directive.Macro
2015-01-12 21:19:04,172 - Loaded System Directive: org.apache.velocity.runtime.directive.Parse
2015-01-12 21:19:04,172 - Loaded System Directive: org.apache.velocity.runtime.directive.Include
2015-01-12 21:19:04,172 - Loaded System Directive: org.apache.velocity.runtime.directive.Foreach
2015-01-12 21:19:04,219 - Created '20' parsers.
2015-01-12 21:19:04,219 - Velocimacro : initialization starting.
2015-01-12 21:19:04,219 - Velocimacro : "velocimacro.library" is not set.  Trying default library: VM_global_library.vm
2015-01-12 21:19:04,219 - Velocimacro : Default library not found.
2015-01-12 21:19:04,219 - Velocimacro : allowInline = true : VMs can be defined inline in templates
2015-01-12 21:19:04,219 - Velocimacro : allowInlineToOverride = false : VMs defined inline may NOT replace previous VM definitions
2015-01-12 21:19:04,219 - Velocimacro : allowInlineLocal = false : VMs defined inline will be global in scope if allowed.
2015-01-12 21:19:04,219 - Velocimacro : autoload off : VM system will not automatically reload global library macros
2015-01-12 21:19:04,219 - Velocimacro : Velocimacro : initialization complete.
2015-01-12 21:19:04,219 - RuntimeInstance successfully initialized.
2015-01-12 21:19:04,234 - Velocimacro : added #mixedcase(  name ) : source = class.vm
2015-01-12 21:19:04,234 - Velocimacro : added #lowercase(  name ) : source = class.vm
2015-01-12 21:19:04,234 - Velocimacro : added #uppercase(  name ) : source = class.vm
2015-01-12 21:19:04,234 - Velocimacro : added #comment(  indent name ) : source = class.vm
2015-01-12 21:19:04,234 - Velocimacro : added #debug(  text ) : source = class.vm
2015-01-12 21:19:04,265 - ResourceManager : found class.vm with loader org.apache.velocity.runtime.resource.loader.ClasspathResourceLoader
2015-01-12 21:19:04,298 - Left side ($name.getComment().length()) of '>' operation has null value. Operation not possible. class.vm [line 1, column 34]
2015-01-12 21:19:04,298 - Left side ($name.getComment().length()) of '>' operation has null value. Operation not possible. class.vm [line 1, column 34]
2015-01-12 21:19:04,298 - Left side ($name.getComment().length()) of '>' operation has null value. Operation not possible. class.vm [line 1, column 34]
2015-01-12 21:19:04,345 - ResourceManager : found get.vm with loader org.apache.velocity.runtime.resource.loader.ClasspathResourceLoader
2015-01-12 21:19:04,345 - Null reference [template 'get.vm', line 235, column 38] : $type cannot be resolved.
2015-01-12 21:19:04,345 - Null reference [template 'get.vm', line 247, column 35] : $type cannot be resolved.
2015-01-12 21:19:04,345 - Null reference [template 'get.vm', line 257, column 38] : $type cannot be resolved.
2015-01-12 21:19:04,345 - Null reference [template 'get.vm', line 267, column 35] : $type cannot be resolved.
2015-01-12 21:19:04,376 - ResourceManager : found add.vm with loader org.apache.velocity.runtime.resource.loader.ClasspathResourceLoader
2015-01-12 21:19:04,392 - ResourceManager : found set.vm with loader org.apache.velocity.runtime.resource.loader.ClasspathResourceLoader
2015-01-12 21:19:04,407 - ResourceManager : found remove.vm with loader org.apache.velocity.runtime.resource.loader.ClasspathResourceLoader
2015-01-12 21:19:04,423 - ResourceManager : found removeall.vm with loader org.apache.velocity.runtime.resource.loader.ClasspathResourceLoader
2015-01-12 21:19:04,423 - Left side ($name.getComment().length()) of '>' operation has null value. Operation not possible. class.vm [line 1, column 34]
2015-01-12 21:19:04,423 - Left side ($name.getComment().length()) of '>' operation has null value. Operation not possible. class.vm [line 1, column 34]
2015-01-12 21:19:04,423 - Left side ($name.getComment().length()) of '>' operation has null value. Operation not possible. class.vm [line 1, column 34]
2015-01-12 21:19:04,485 - ResourceManager : found get.vm with loader org.apache.velocity.runtime.resource.loader.ClasspathResourceLoader
2015-01-12 21:19:04,485 - Null reference [template 'get.vm', line 235, column 38] : $type cannot be resolved.
2015-01-12 21:19:04,485 - Null reference [template 'get.vm', line 247, column 35] : $type cannot be resolved.
2015-01-12 21:19:04,485 - Null reference [template 'get.vm', line 257, column 38] : $type cannot be resolved.
2015-01-12 21:19:04,485 - Null reference [template 'get.vm', line 267, column 35] : $type cannot be resolved.
2015-01-12 21:19:04,501 - ResourceManager : found add.vm with loader org.apache.velocity.runtime.resource.loader.ClasspathResourceLoader
2015-01-12 21:19:04,517 - ResourceManager : found set.vm with loader org.apache.velocity.runtime.resource.loader.ClasspathResourceLoader
2015-01-12 21:19:04,532 - ResourceManager : found remove.vm with loader org.apache.velocity.runtime.resource.loader.ClasspathResourceLoader
2015-01-12 21:19:04,532 - ResourceManager : found removeall.vm with loader org.apache.velocity.runtime.resource.loader.ClasspathResourceLoader
2015-01-12 21:19:04,579 - ResourceManager : found get.vm with loader org.apache.velocity.runtime.resource.loader.ClasspathResourceLoader
2015-01-12 21:19:04,579 - Null reference [template 'get.vm', line 235, column 38] : $type cannot be resolved.
2015-01-12 21:19:04,579 - Null reference [template 'get.vm', line 247, column 35] : $type cannot be resolved.
2015-01-12 21:19:04,579 - Null reference [template 'get.vm', line 257, column 38] : $type cannot be resolved.
2015-01-12 21:19:04,579 - Null reference [template 'get.vm', line 267, column 35] : $type cannot be resolved.
2015-01-12 21:19:04,595 - ResourceManager : found add.vm with loader org.apache.velocity.runtime.resource.loader.ClasspathResourceLoader
2015-01-12 21:19:04,610 - ResourceManager : found set.vm with loader org.apache.velocity.runtime.resource.loader.ClasspathResourceLoader
2015-01-12 21:19:04,626 - ResourceManager : found remove.vm with loader org.apache.velocity.runtime.resource.loader.ClasspathResourceLoader
2015-01-12 21:19:04,626 - ResourceManager : found removeall.vm with loader org.apache.velocity.runtime.resource.loader.ClasspathResourceLoader
2015-01-12 21:19:04,657 - ResourceManager : found get.vm with loader org.apache.velocity.runtime.resource.loader.ClasspathResourceLoader
2015-01-12 21:19:04,657 - Null reference [template 'get.vm', line 235, column 38] : $type cannot be resolved.
2015-01-12 21:19:04,657 - Null reference [template 'get.vm', line 247, column 35] : $type cannot be resolved.
2015-01-12 21:19:04,657 - Null reference [template 'get.vm', line 257, column 38] : $type cannot be resolved.
2015-01-12 21:19:04,657 - Null reference [template 'get.vm', line 267, column 35] : $type cannot be resolved.
2015-01-12 21:19:04,673 - ResourceManager : found add.vm with loader org.apache.velocity.runtime.resource.loader.ClasspathResourceLoader
2015-01-12 21:19:04,673 - ResourceManager : found set.vm with loader org.apache.velocity.runtime.resource.loader.ClasspathResourceLoader
2015-01-12 21:19:04,689 - ResourceManager : found remove.vm with loader org.apache.velocity.runtime.resource.loader.ClasspathResourceLoader
2015-01-12 21:19:04,704 - ResourceManager : found removeall.vm with loader org.apache.velocity.runtime.resource.loader.ClasspathResourceLoader
2015-01-12 21:19:04,720 - ResourceManager : found get.vm with loader org.apache.velocity.runtime.resource.loader.ClasspathResourceLoader
2015-01-12 21:19:04,720 - Null reference [template 'get.vm', line 235, column 38] : $type cannot be resolved.
2015-01-12 21:19:04,720 - Null reference [template 'get.vm', line 247, column 35] : $type cannot be resolved.
2015-01-12 21:19:04,720 - Null reference [template 'get.vm', line 257, column 38] : $type cannot be resolved.
2015-01-12 21:19:04,720 - Null reference [template 'get.vm', line 267, column 35] : $type cannot be resolved.
2015-01-12 21:19:04,735 - ResourceManager : found add.vm with loader org.apache.velocity.runtime.resource.loader.ClasspathResourceLoader
2015-01-12 21:19:04,735 - ResourceManager : found set.vm with loader org.apache.velocity.runtime.resource.loader.ClasspathResourceLoader
2015-01-12 21:19:04,751 - ResourceManager : found remove.vm with loader org.apache.velocity.runtime.resource.loader.ClasspathResourceLoader
2015-01-12 21:19:04,751 - ResourceManager : found removeall.vm with loader org.apache.velocity.runtime.resource.loader.ClasspathResourceLoader
2015-01-12 21:19:04,782 - ResourceManager : found get.vm with loader org.apache.velocity.runtime.resource.loader.ClasspathResourceLoader
2015-01-12 21:19:04,782 - Null reference [template 'get.vm', line 235, column 38] : $type cannot be resolved.
2015-01-12 21:19:04,782 - Null reference [template 'get.vm', line 247, column 35] : $type cannot be resolved.
2015-01-12 21:19:04,782 - Null reference [template 'get.vm', line 257, column 38] : $type cannot be resolved.
2015-01-12 21:19:04,782 - Null reference [template 'get.vm', line 267, column 35] : $type cannot be resolved.
2015-01-12 21:19:04,798 - ResourceManager : found add.vm with loader org.apache.velocity.runtime.resource.loader.ClasspathResourceLoader
2015-01-12 21:19:04,798 - ResourceManager : found set.vm with loader org.apache.velocity.runtime.resource.loader.ClasspathResourceLoader
2015-01-12 21:19:04,814 - ResourceManager : found remove.vm with loader org.apache.velocity.runtime.resource.loader.ClasspathResourceLoader
2015-01-12 21:19:04,829 - ResourceManager : found removeall.vm with loader org.apache.velocity.runtime.resource.loader.ClasspathResourceLoader
2015-01-12 21:19:04,845 - ResourceManager : found get.vm with loader org.apache.velocity.runtime.resource.loader.ClasspathResourceLoader
2015-01-12 21:19:04,845 - Null reference [template 'get.vm', line 235, column 38] : $type cannot be resolved.
2015-01-12 21:19:04,845 - Null reference [template 'get.vm', line 247, column 35] : $type cannot be resolved.
2015-01-12 21:19:04,845 - Null reference [template 'get.vm', line 257, column 38] : $type cannot be resolved.
2015-01-12 21:19:04,845 - Null reference [template 'get.vm', line 267, column 35] : $type cannot be resolved.
2015-01-12 21:19:04,860 - ResourceManager : found add.vm with loader org.apache.velocity.runtime.resource.loader.ClasspathResourceLoader
2015-01-12 21:19:04,860 - Left side ($name.getComment().length()) of '>' operation has null value. Operation not possible. add.vm [line 1, column 34]
2015-01-12 21:19:04,860 - Left side ($name.getComment().length()) of '>' operation has null value. Operation not possible. add.vm [line 1, column 34]
2015-01-12 21:19:04,860 - ResourceManager : found set.vm with loader org.apache.velocity.runtime.resource.loader.ClasspathResourceLoader
2015-01-12 21:19:04,860 - Left side ($name.getComment().length()) of '>' operation has null value. Operation not possible. set.vm [line 1, column 34]
2015-01-12 21:19:04,860 - Left side ($name.getComment().length()) of '>' operation has null value. Operation not possible. set.vm [line 1, column 34]
2015-01-12 21:19:04,876 - ResourceManager : found remove.vm with loader org.apache.velocity.runtime.resource.loader.ClasspathResourceLoader
2015-01-12 21:19:04,876 - Left side ($name.getComment().length()) of '>' operation has null value. Operation not possible. remove.vm [line 1, column 34]
2015-01-12 21:19:04,876 - Left side ($name.getComment().length()) of '>' operation has null value. Operation not possible. remove.vm [line 1, column 34]
2015-01-12 21:19:04,876 - ResourceManager : found removeall.vm with loader org.apache.velocity.runtime.resource.loader.ClasspathResourceLoader
2015-01-12 21:19:04,892 - ResourceManager : found get.vm with loader org.apache.velocity.runtime.resource.loader.ClasspathResourceLoader
2015-01-12 21:19:04,892 - Null reference [template 'get.vm', line 235, column 38] : $type cannot be resolved.
2015-01-12 21:19:04,892 - Null reference [template 'get.vm', line 247, column 35] : $type cannot be resolved.
2015-01-12 21:19:04,892 - Null reference [template 'get.vm', line 257, column 38] : $type cannot be resolved.
2015-01-12 21:19:04,892 - Null reference [template 'get.vm', line 267, column 35] : $type cannot be resolved.
2015-01-12 21:19:04,907 - ResourceManager : found add.vm with loader org.apache.velocity.runtime.resource.loader.ClasspathResourceLoader
2015-01-12 21:19:04,907 - ResourceManager : found set.vm with loader org.apache.velocity.runtime.resource.loader.ClasspathResourceLoader
2015-01-12 21:19:04,923 - ResourceManager : found remove.vm with loader org.apache.velocity.runtime.resource.loader.ClasspathResourceLoader
2015-01-12 21:19:04,923 - ResourceManager : found removeall.vm with loader org.apache.velocity.runtime.resource.loader.ClasspathResourceLoader
2015-01-12 21:19:04,923 - Left side ($name.getComment().length()) of '>' operation has null value. Operation not possible. class.vm [line 1, column 34]
2015-01-12 21:19:04,923 - Left side ($name.getComment().length()) of '>' operation has null value. Operation not possible. class.vm [line 1, column 34]
2015-01-12 21:19:04,923 - Left side ($name.getComment().length()) of '>' operation has null value. Operation not possible. class.vm [line 1, column 34]
2015-01-12 21:19:04,923 - Left side ($name.getComment().length()) of '>' operation has null value. Operation not possible. class.vm [line 1, column 34]
2015-01-12 21:19:04,923 - Left side ($name.getComment().length()) of '>' operation has null value. Operation not possible. class.vm [line 1, column 34]
2015-01-12 21:19:04,923 - Left side ($name.getComment().length()) of '>' operation has null value. Operation not possible. class.vm [line 1, column 34]
2015-01-12 21:19:04,954 - ResourceManager : found get.vm with loader org.apache.velocity.runtime.resource.loader.ClasspathResourceLoader
2015-01-12 21:19:04,954 - Null reference [template 'get.vm', line 235, column 38] : $type cannot be resolved.
2015-01-12 21:19:04,954 - Null reference [template 'get.vm', line 247, column 35] : $type cannot be resolved.
2015-01-12 21:19:04,954 - Null reference [template 'get.vm', line 257, column 38] : $type cannot be resolved.
2015-01-12 21:19:04,954 - Null reference [template 'get.vm', line 267, column 35] : $type cannot be resolved.
2015-01-12 21:19:04,954 - ResourceManager : found add.vm with loader org.apache.velocity.runtime.resource.loader.ClasspathResourceLoader
2015-01-12 21:19:04,954 - Left side ($name.getComment().length()) of '>' operation has null value. Operation not possible. add.vm [line 1, column 34]
2015-01-12 21:19:04,954 - Left side ($name.getComment().length()) of '>' operation has null value. Operation not possible. add.vm [line 1, column 34]
2015-01-12 21:19:04,970 - ResourceManager : found set.vm with loader org.apache.velocity.runtime.resource.loader.ClasspathResourceLoader
2015-01-12 21:19:04,970 - Left side ($name.getComment().length()) of '>' operation has null value. Operation not possible. set.vm [line 1, column 34]
2015-01-12 21:19:04,970 - Left side ($name.getComment().length()) of '>' operation has null value. Operation not possible. set.vm [line 1, column 34]
2015-01-12 21:19:04,970 - ResourceManager : found remove.vm with loader org.apache.velocity.runtime.resource.loader.ClasspathResourceLoader
2015-01-12 21:19:04,970 - Left side ($name.getComment().length()) of '>' operation has null value. Operation not possible. remove.vm [line 1, column 34]
2015-01-12 21:19:04,985 - Left side ($name.getComment().length()) of '>' operation has null value. Operation not possible. remove.vm [line 1, column 34]
2015-01-12 21:19:04,985 - ResourceManager : found removeall.vm with loader org.apache.velocity.runtime.resource.loader.ClasspathResourceLoader
2015-01-12 21:19:05,017 - ResourceManager : found get.vm with loader org.apache.velocity.runtime.resource.loader.ClasspathResourceLoader
2015-01-12 21:19:05,017 - Null reference [template 'get.vm', line 235, column 38] : $type cannot be resolved.
2015-01-12 21:19:05,017 - Null reference [template 'get.vm', line 247, column 35] : $type cannot be resolved.
2015-01-12 21:19:05,017 - Null reference [template 'get.vm', line 257, column 38] : $type cannot be resolved.
2015-01-12 21:19:05,017 - Null reference [template 'get.vm', line 267, column 35] : $type cannot be resolved.
2015-01-12 21:19:05,017 - ResourceManager : found add.vm with loader org.apache.velocity.runtime.resource.loader.ClasspathResourceLoader
2015-01-12 21:19:05,032 - Left side ($name.getComment().length()) of '>' operation has null value. Operation not possible. add.vm [line 1, column 34]
2015-01-12 21:19:05,032 - Left side ($name.getComment().length()) of '>' operation has null value. Operation not possible. add.vm [line 1, column 34]
2015-01-12 21:19:05,032 - ResourceManager : found set.vm with loader org.apache.velocity.runtime.resource.loader.ClasspathResourceLoader
2015-01-12 21:19:05,032 - Left side ($name.getComment().length()) of '>' operation has null value. Operation not possible. set.vm [line 1, column 34]
2015-01-12 21:19:05,032 - Left side ($name.getComment().length()) of '>' operation has null value. Operation not possible. set.vm [line 1, column 34]
2015-01-12 21:19:05,032 - ResourceManager : found remove.vm with loader org.apache.velocity.runtime.resource.loader.ClasspathResourceLoader
2015-01-12 21:19:05,032 - Left side ($name.getComment().length()) of '>' operation has null value. Operation not possible. remove.vm [line 1, column 34]
2015-01-12 21:19:05,032 - Left side ($name.getComment().length()) of '>' operation has null value. Operation not possible. remove.vm [line 1, column 34]
2015-01-12 21:19:05,048 - ResourceManager : found removeall.vm with loader org.apache.velocity.runtime.resource.loader.ClasspathResourceLoader
2015-01-12 21:19:05,048 - Left side ($name.getComment().length()) of '>' operation has null value. Operation not possible. class.vm [line 1, column 34]
2015-01-12 21:19:05,048 - Left side ($name.getComment().length()) of '>' operation has null value. Operation not possible. class.vm [line 1, column 34]
2015-01-12 21:19:05,048 - Left side ($name.getComment().length()) of '>' operation has null value. Operation not possible. class.vm [line 1, column 34]
2015-01-12 21:19:05,079 - ResourceManager : found get.vm with loader org.apache.velocity.runtime.resource.loader.ClasspathResourceLoader
2015-01-12 21:19:05,079 - Null reference [template 'get.vm', line 235, column 38] : $type cannot be resolved.
2015-01-12 21:19:05,079 - Null reference [template 'get.vm', line 247, column 35] : $type cannot be resolved.
2015-01-12 21:19:05,079 - Null reference [template 'get.vm', line 257, column 38] : $type cannot be resolved.
2015-01-12 21:19:05,079 - Null reference [template 'get.vm', line 267, column 35] : $type cannot be resolved.
2015-01-12 21:19:05,095 - ResourceManager : found add.vm with loader org.apache.velocity.runtime.resource.loader.ClasspathResourceLoader
2015-01-12 21:19:05,095 - ResourceManager : found set.vm with loader org.apache.velocity.runtime.resource.loader.ClasspathResourceLoader
2015-01-12 21:19:05,110 - ResourceManager : found remove.vm with loader org.apache.velocity.runtime.resource.loader.ClasspathResourceLoader
2015-01-12 21:19:05,126 - ResourceManager : found removeall.vm with loader org.apache.velocity.runtime.resource.loader.ClasspathResourceLoader
2015-01-12 21:19:05,142 - ResourceManager : found get.vm with loader org.apache.velocity.runtime.resource.loader.ClasspathResourceLoader
2015-01-12 21:19:05,142 - Null reference [template 'get.vm', line 235, column 38] : $type cannot be resolved.
2015-01-12 21:19:05,142 - Null reference [template 'get.vm', line 247, column 35] : $type cannot be resolved.
2015-01-12 21:19:05,142 - Null reference [template 'get.vm', line 257, column 38] : $type cannot be resolved.
2015-01-12 21:19:05,142 - Null reference [template 'get.vm', line 267, column 35] : $type cannot be resolved.
2015-01-12 21:19:05,157 - ResourceManager : found add.vm with loader org.apache.velocity.runtime.resource.loader.ClasspathResourceLoader
2015-01-12 21:19:05,173 - ResourceManager : found set.vm with loader org.apache.velocity.runtime.resource.loader.ClasspathResourceLoader
2015-01-12 21:19:05,173 - ResourceManager : found remove.vm with loader org.apache.velocity.runtime.resource.loader.ClasspathResourceLoader
2015-01-12 21:19:05,189 - ResourceManager : found removeall.vm with loader org.apache.velocity.runtime.resource.loader.ClasspathResourceLoader
2015-01-12 21:19:05,204 - ResourceManager : found get.vm with loader org.apache.velocity.runtime.resource.loader.ClasspathResourceLoader
2015-01-12 21:19:05,220 - Null reference [template 'get.vm', line 235, column 38] : $type cannot be resolved.
2015-01-12 21:19:05,220 - Null reference [template 'get.vm', line 247, column 35] : $type cannot be resolved.
2015-01-12 21:19:05,220 - Null reference [template 'get.vm', line 257, column 38] : $type cannot be resolved.
2015-01-12 21:19:05,220 - Null reference [template 'get.vm', line 267, column 35] : $type cannot be resolved.
2015-01-12 21:19:05,220 - ResourceManager : found add.vm with loader org.apache.velocity.runtime.resource.loader.ClasspathResourceLoader
2015-01-12 21:19:05,235 - ResourceManager : found set.vm with loader org.apache.velocity.runtime.resource.loader.ClasspathResourceLoader
2015-01-12 21:19:05,235 - ResourceManager : found remove.vm with loader org.apache.velocity.runtime.resource.loader.ClasspathResourceLoader
2015-01-12 21:19:05,251 - ResourceManager : found removeall.vm with loader org.apache.velocity.runtime.resource.loader.ClasspathResourceLoader
2015-01-12 21:19:05,251 - Left side ($name.getComment().length()) of '>' operation has null value. Operation not possible. class.vm [line 1, column 34]
2015-01-12 21:19:05,251 - Left side ($name.getComment().length()) of '>' operation has null value. Operation not possible. class.vm [line 1, column 34]
2015-01-12 21:19:05,251 - Left side ($name.getComment().length()) of '>' operation has null value. Operation not possible. class.vm [line 1, column 34]
2015-01-12 21:19:05,251 - Left side ($name.getComment().length()) of '>' operation has null value. Operation not possible. class.vm [line 1, column 34]
2015-01-12 21:19:05,251 - Left side ($name.getComment().length()) of '>' operation has null value. Operation not possible. class.vm [line 1, column 34]
2015-01-12 21:19:05,251 - Left side ($name.getComment().length()) of '>' operation has null value. Operation not possible. class.vm [line 1, column 34]
2015-01-12 21:19:05,251 - Left side ($name.getComment().length()) of '>' operation has null value. Operation not possible. class.vm [line 1, column 34]
2015-01-12 21:19:05,251 - Left side ($name.getComment().length()) of '>' operation has null value. Operation not possible. class.vm [line 1, column 34]
2015-01-12 21:19:05,251 - Left side ($name.getComment().length()) of '>' operation has null value. Operation not possible. class.vm [line 1, column 34]
2015-01-12 21:19:05,251 - Left side ($name.getComment().length()) of '>' operation has null value. Operation not possible. class.vm [line 1, column 34]
2015-01-12 21:19:05,251 - Left side ($name.getComment().length()) of '>' operation has null value. Operation not possible. class.vm [line 1, column 34]
2015-01-12 21:19:05,251 - Left side ($name.getComment().length()) of '>' operation has null value. Operation not possible. class.vm [line 1, column 34]
2015-01-12 21:19:05,251 - Left side ($name.getComment().length()) of '>' operation has null value. Operation not possible. class.vm [line 1, column 34]
2015-01-12 21:19:05,251 - Left side ($name.getComment().length()) of '>' operation has null value. Operation not possible. class.vm [line 1, column 34]
2015-01-12 21:19:05,251 - Left side ($name.getComment().length()) of '>' operation has null value. Operation not possible. class.vm [line 1, column 34]
2015-01-12 21:19:05,251 - Left side ($name.getComment().length()) of '>' operation has null value. Operation not possible. class.vm [line 1, column 34]
2015-01-12 21:19:05,251 - Left side ($name.getComment().length()) of '>' operation has null value. Operation not possible. class.vm [line 1, column 34]
2015-01-12 21:19:05,251 - Left side ($name.getComment().length()) of '>' operation has null value. Operation not possible. class.vm [line 1, column 34]
2015-01-12 21:19:05,251 - Left side ($name.getComment().length()) of '>' operation has null value. Operation not possible. class.vm [line 1, column 34]
2015-01-12 21:19:05,251 - Left side ($name.getComment().length()) of '>' operation has null value. Operation not possible. class.vm [line 1, column 34]
2015-01-12 21:19:05,251 - Left side ($name.getComment().length()) of '>' operation has null value. Operation not possible. class.vm [line 1, column 34]
2015-01-12 21:19:05,251 - Left side ($name.getComment().length()) of '>' operation has null value. Operation not possible. class.vm [line 1, column 34]
2015-01-12 21:19:05,251 - Left side ($name.getComment().length()) of '>' operation has null value. Operation not possible. class.vm [line 1, column 34]
2015-01-12 21:19:05,251 - Left side ($name.getComment().length()) of '>' operation has null value. Operation not possible. class.vm [line 1, column 34]
2015-01-12 21:19:05,251 - Left side ($name.getComment().length()) of '>' operation has null value. Operation not possible. class.vm [line 1, column 34]
2015-01-12 21:19:05,251 - Left side ($name.getComment().length()) of '>' operation has null value. Operation not possible. class.vm [line 1, column 34]
2015-01-12 21:19:05,251 - Left side ($name.getComment().length()) of '>' operation has null value. Operation not possible. class.vm [line 1, column 34]
2015-01-12 21:19:05,251 - Left side ($name.getComment().length()) of '>' operation has null value. Operation not possible. class.vm [line 1, column 34]
2015-01-12 21:19:05,251 - Left side ($name.getComment().length()) of '>' operation has null value. Operation not possible. class.vm [line 1, column 34]
2015-01-12 21:19:05,251 - Left side ($name.getComment().length()) of '>' operation has null value. Operation not possible. class.vm [line 1, column 34]
2015-01-12 21:19:05,251 - Left side ($name.getComment().length()) of '>' operation has null value. Operation not possible. class.vm [line 1, column 34]
2015-01-12 21:19:05,251 - Left side ($name.getComment().length()) of '>' operation has null value. Operation not possible. class.vm [line 1, column 34]
2015-01-12 21:19:05,251 - Left side ($name.getComment().length()) of '>' operation has null value. Operation not possible. class.vm [line 1, column 34]
2015-01-12 21:19:05,251 - Left side ($name.getComment().length()) of '>' operation has null value. Operation not possible. class.vm [line 1, column 34]
2015-01-12 21:19:05,251 - Left side ($name.getComment().length()) of '>' operation has null value. Operation not possible. class.vm [line 1, column 34]
2015-01-12 21:19:05,251 - Left side ($name.getComment().length()) of '>' operation has null value. Operation not possible. class.vm [line 1, column 34]
2015-01-12 21:19:05,251 - Left side ($name.getComment().length()) of '>' operation has null value. Operation not possible. class.vm [line 1, column 34]
2015-01-12 21:19:05,251 - Left side ($name.getComment().length()) of '>' operation has null value. Operation not possible. class.vm [line 1, column 34]
2015-01-12 21:19:05,267 - Left side ($name.getComment().length()) of '>' operation has null value. Operation not possible. class.vm [line 1, column 34]
2015-01-12 21:19:05,267 - Left side ($name.getComment().length()) of '>' operation has null value. Operation not possible. class.vm [line 1, column 34]
2015-01-12 21:19:05,267 - Left side ($name.getComment().length()) of '>' operation has null value. Operation not possible. class.vm [line 1, column 34]
2015-01-12 21:19:05,267 - Left side ($name.getComment().length()) of '>' operation has null value. Operation not possible. class.vm [line 1, column 34]
2015-01-12 21:19:05,282 - ResourceManager : found get.vm with loader org.apache.velocity.runtime.resource.loader.ClasspathResourceLoader
2015-01-12 21:19:05,282 - Null reference [template 'get.vm', line 235, column 38] : $type cannot be resolved.
2015-01-12 21:19:05,282 - Null reference [template 'get.vm', line 247, column 35] : $type cannot be resolved.
2015-01-12 21:19:05,282 - Null reference [template 'get.vm', line 257, column 38] : $type cannot be resolved.
2015-01-12 21:19:05,282 - Null reference [template 'get.vm', line 267, column 35] : $type cannot be resolved.
2015-01-12 21:19:05,282 - ResourceManager : found add.vm with loader org.apache.velocity.runtime.resource.loader.ClasspathResourceLoader
2015-01-12 21:19:05,298 - ResourceManager : found set.vm with loader org.apache.velocity.runtime.resource.loader.ClasspathResourceLoader
2015-01-12 21:19:05,298 - ResourceManager : found remove.vm with loader org.apache.velocity.runtime.resource.loader.ClasspathResourceLoader
2015-01-12 21:19:05,298 - ResourceManager : found removeall.vm with loader org.apache.velocity.runtime.resource.loader.ClasspathResourceLoader
2015-01-12 21:19:05,329 - ResourceManager : found get.vm with loader org.apache.velocity.runtime.resource.loader.ClasspathResourceLoader
2015-01-12 21:19:05,329 - Null reference [template 'get.vm', line 235, column 38] : $type cannot be resolved.
2015-01-12 21:19:05,329 - Null reference [template 'get.vm', line 247, column 35] : $type cannot be resolved.
2015-01-12 21:19:05,329 - Null reference [template 'get.vm', line 257, column 38] : $type cannot be resolved.
2015-01-12 21:19:05,329 - Null reference [template 'get.vm', line 267, column 35] : $type cannot be resolved.
2015-01-12 21:19:05,329 - ResourceManager : found add.vm with loader org.apache.velocity.runtime.resource.loader.ClasspathResourceLoader
2015-01-12 21:19:05,348 - ResourceManager : found set.vm with loader org.apache.velocity.runtime.resource.loader.ClasspathResourceLoader
2015-01-12 21:19:05,357 - ResourceManager : found remove.vm with loader org.apache.velocity.runtime.resource.loader.ClasspathResourceLoader
2015-01-12 21:19:05,357 - ResourceManager : found removeall.vm with loader org.apache.velocity.runtime.resource.loader.ClasspathResourceLoader
2015-01-12 21:19:05,372 - ResourceManager : found get.vm with loader org.apache.velocity.runtime.resource.loader.ClasspathResourceLoader
2015-01-12 21:19:05,372 - Null reference [template 'get.vm', line 235, column 38] : $type cannot be resolved.
2015-01-12 21:19:05,372 - Null reference [template 'get.vm', line 247, column 35] : $type cannot be resolved.
2015-01-12 21:19:05,388 - Null reference [template 'get.vm', line 257, column 38] : $type cannot be resolved.
2015-01-12 21:19:05,388 - Null reference [template 'get.vm', line 267, column 35] : $type cannot be resolved.
2015-01-12 21:19:05,388 - ResourceManager : found add.vm with loader org.apache.velocity.runtime.resource.loader.ClasspathResourceLoader
2015-01-12 21:19:05,404 - ResourceManager : found set.vm with loader org.apache.velocity.runtime.resource.loader.ClasspathResourceLoader
2015-01-12 21:19:05,404 - ResourceManager : found remove.vm with loader org.apache.velocity.runtime.resource.loader.ClasspathResourceLoader
2015-01-12 21:19:05,404 - ResourceManager : found removeall.vm with loader org.apache.velocity.runtime.resource.loader.ClasspathResourceLoader
2015-01-12 21:19:05,419 - ResourceManager : found get.vm with loader org.apache.velocity.runtime.resource.loader.ClasspathResourceLoader
2015-01-12 21:19:05,419 - Null reference [template 'get.vm', line 235, column 38] : $type cannot be resolved.
2015-01-12 21:19:05,419 - Null reference [template 'get.vm', line 247, column 35] : $type cannot be resolved.
2015-01-12 21:19:05,419 - Null reference [template 'get.vm', line 257, column 38] : $type cannot be resolved.
2015-01-12 21:19:05,419 - Null reference [template 'get.vm', line 267, column 35] : $type cannot be resolved.
2015-01-12 21:19:05,435 - ResourceManager : found add.vm with loader org.apache.velocity.runtime.resource.loader.ClasspathResourceLoader
2015-01-12 21:19:05,435 - ResourceManager : found set.vm with loader org.apache.velocity.runtime.resource.loader.ClasspathResourceLoader
2015-01-12 21:19:05,451 - ResourceManager : found remove.vm with loader org.apache.velocity.runtime.resource.loader.ClasspathResourceLoader
2015-01-12 21:19:05,451 - ResourceManager : found removeall.vm with loader org.apache.velocity.runtime.resource.loader.ClasspathResourceLoader
2015-01-12 21:19:05,482 - ResourceManager : found get.vm with loader org.apache.velocity.runtime.resource.loader.ClasspathResourceLoader
2015-01-12 21:19:05,482 - Null reference [template 'get.vm', line 235, column 38] : $type cannot be resolved.
2015-01-12 21:19:05,482 - Null reference [template 'get.vm', line 247, column 35] : $type cannot be resolved.
2015-01-12 21:19:05,482 - Null reference [template 'get.vm', line 257, column 38] : $type cannot be resolved.
2015-01-12 21:19:05,482 - Null reference [template 'get.vm', line 267, column 35] : $type cannot be resolved.
2015-01-12 21:19:05,482 - ResourceManager : found add.vm with loader org.apache.velocity.runtime.resource.loader.ClasspathResourceLoader
2015-01-12 21:19:05,482 - ResourceManager : found set.vm with loader org.apache.velocity.runtime.resource.loader.ClasspathResourceLoader
2015-01-12 21:19:05,497 - ResourceManager : found remove.vm with loader org.apache.velocity.runtime.resource.loader.ClasspathResourceLoader
2015-01-12 21:19:05,497 - ResourceManager : found removeall.vm with loader org.apache.velocity.runtime.resource.loader.ClasspathResourceLoader
2015-01-12 21:19:05,513 - ResourceManager : found get.vm with loader org.apache.velocity.runtime.resource.loader.ClasspathResourceLoader
2015-01-12 21:19:05,513 - Null reference [template 'get.vm', line 235, column 38] : $type cannot be resolved.
2015-01-12 21:19:05,513 - Null reference [template 'get.vm', line 247, column 35] : $type cannot be resolved.
2015-01-12 21:19:05,513 - Null reference [template 'get.vm', line 257, column 38] : $type cannot be resolved.
2015-01-12 21:19:05,513 - Null reference [template 'get.vm', line 267, column 35] : $type cannot be resolved.
2015-01-12 21:19:05,513 - ResourceManager : found add.vm with loader org.apache.velocity.runtime.resource.loader.ClasspathResourceLoader
2015-01-12 21:19:05,529 - ResourceManager : found set.vm with loader org.apache.velocity.runtime.resource.loader.ClasspathResourceLoader
2015-01-12 21:19:05,529 - ResourceManager : found remove.vm with loader org.apache.velocity.runtime.resource.loader.ClasspathResourceLoader
2015-01-12 21:19:05,529 - ResourceManager : found removeall.vm with loader org.apache.velocity.runtime.resource.loader.ClasspathResourceLoader
2015-01-12 21:19:05,544 - ResourceManager : found get.vm with loader org.apache.velocity.runtime.resource.loader.ClasspathResourceLoader
2015-01-12 21:19:05,544 - Null reference [template 'get.vm', line 235, column 38] : $type cannot be resolved.
2015-01-12 21:19:05,544 - Null reference [template 'get.vm', line 247, column 35] : $type cannot be resolved.
2015-01-12 21:19:05,544 - Null reference [template 'get.vm', line 257, column 38] : $type cannot be resolved.
2015-01-12 21:19:05,544 - Null reference [template 'get.vm', line 267, column 35] : $type cannot be resolved.
2015-01-12 21:19:05,544 - ResourceManager : found add.vm with loader org.apache.velocity.runtime.resource.loader.ClasspathResourceLoader
2015-01-12 21:19:05,544 - ResourceManager : found set.vm with loader org.apache.velocity.runtime.resource.loader.ClasspathResourceLoader
2015-01-12 21:19:05,560 - ResourceManager : found remove.vm with loader org.apache.velocity.runtime.resource.loader.ClasspathResourceLoader
2015-01-12 21:19:05,560 - ResourceManager : found removeall.vm with loader org.apache.velocity.runtime.resource.loader.ClasspathResourceLoader
2015-01-12 21:19:05,576 - ResourceManager : found get.vm with loader org.apache.velocity.runtime.resource.loader.ClasspathResourceLoader
2015-01-12 21:19:05,576 - Null reference [template 'get.vm', line 235, column 38] : $type cannot be resolved.
2015-01-12 21:19:05,576 - Null reference [template 'get.vm', line 247, column 35] : $type cannot be resolved.
2015-01-12 21:19:05,576 - Null reference [template 'get.vm', line 257, column 38] : $type cannot be resolved.
2015-01-12 21:19:05,576 - Null reference [template 'get.vm', line 267, column 35] : $type cannot be resolved.
2015-01-12 21:19:05,576 - ResourceManager : found add.vm with loader org.apache.velocity.runtime.resource.loader.ClasspathResourceLoader
2015-01-12 21:19:05,576 - Left side ($name.getComment().length()) of '>' operation has null value. Operation not possible. add.vm [line 1, column 34]
2015-01-12 21:19:05,576 - Left side ($name.getComment().length()) of '>' operation has null value. Operation not possible. add.vm [line 1, column 34]
2015-01-12 21:19:05,576 - ResourceManager : found set.vm with loader org.apache.velocity.runtime.resource.loader.ClasspathResourceLoader
2015-01-12 21:19:05,576 - Left side ($name.getComment().length()) of '>' operation has null value. Operation not possible. set.vm [line 1, column 34]
2015-01-12 21:19:05,576 - Left side ($name.getComment().length()) of '>' operation has null value. Operation not possible. set.vm [line 1, column 34]
2015-01-12 21:19:05,591 - ResourceManager : found remove.vm with loader org.apache.velocity.runtime.resource.loader.ClasspathResourceLoader
2015-01-12 21:19:05,591 - Left side ($name.getComment().length()) of '>' operation has null value. Operation not possible. remove.vm [line 1, column 34]
2015-01-12 21:19:05,591 - Left side ($name.getComment().length()) of '>' operation has null value. Operation not possible. remove.vm [line 1, column 34]
2015-01-12 21:19:05,591 - ResourceManager : found removeall.vm with loader org.apache.velocity.runtime.resource.loader.ClasspathResourceLoader
2015-01-12 21:19:05,607 - ResourceManager : found get.vm with loader org.apache.velocity.runtime.resource.loader.ClasspathResourceLoader
2015-01-12 21:19:05,607 - Null reference [template 'get.vm', line 235, column 38] : $type cannot be resolved.
2015-01-12 21:19:05,607 - Null reference [template 'get.vm', line 247, column 35] : $type cannot be resolved.
2015-01-12 21:19:05,607 - Null reference [template 'get.vm', line 257, column 38] : $type cannot be resolved.
2015-01-12 21:19:05,607 - Null reference [template 'get.vm', line 267, column 35] : $type cannot be resolved.
2015-01-12 21:19:05,607 - ResourceManager : found add.vm with loader org.apache.velocity.runtime.resource.loader.ClasspathResourceLoader
2015-01-12 21:19:05,607 - ResourceManager : found set.vm with loader org.apache.velocity.runtime.resource.loader.ClasspathResourceLoader
2015-01-12 21:19:05,622 - ResourceManager : found remove.vm with loader org.apache.velocity.runtime.resource.loader.ClasspathResourceLoader
2015-01-12 21:19:05,622 - ResourceManager : found removeall.vm with loader org.apache.velocity.runtime.resource.loader.ClasspathResourceLoader
2015-01-12 21:25:12,465 - SimpleLog4JLogSystem initialized using logfile 'velocity.log'
2015-01-12 21:25:12,465 - *******************************************************************
2015-01-12 21:25:12,465 - Starting Apache Velocity v1.5 (compiled: 2007-02-22 08:52:29)
2015-01-12 21:25:12,465 - RuntimeInstance initializing.
2015-01-12 21:25:12,465 - Default Properties File: org\apache\velocity\runtime\defaults\velocity.properties
2015-01-12 21:25:12,465 - Trying to use logger class org.apache.velocity.runtime.log.SimpleLog4JLogSystem
2015-01-12 21:25:12,465 - LogSystem has been deprecated. Please use a LogChute implementation.
2015-01-12 21:25:12,465 - Default ResourceManager initializing. (class org.apache.velocity.runtime.resource.ResourceManagerImpl)
2015-01-12 21:25:12,465 - ResourceLoader instantiated: org.apache.velocity.runtime.resource.loader.ClasspathResourceLoader
2015-01-12 21:25:12,465 - ClasspathResourceLoader : initialization complete.
2015-01-12 21:25:12,480 - ResourceCache: initialized (class org.apache.velocity.runtime.resource.ResourceCacheImpl)
2015-01-12 21:25:12,480 - Default ResourceManager initialization complete.
2015-01-12 21:25:12,480 - Loaded System Directive: org.apache.velocity.runtime.directive.Literal
2015-01-12 21:25:12,480 - Loaded System Directive: org.apache.velocity.runtime.directive.Macro
2015-01-12 21:25:12,480 - Loaded System Directive: org.apache.velocity.runtime.directive.Parse
2015-01-12 21:25:12,480 - Loaded System Directive: org.apache.velocity.runtime.directive.Include
2015-01-12 21:25:12,480 - Loaded System Directive: org.apache.velocity.runtime.directive.Foreach
2015-01-12 21:25:12,496 - Created '20' parsers.
2015-01-12 21:25:12,496 - Velocimacro : initialization starting.
2015-01-12 21:25:12,496 - Velocimacro : "velocimacro.library" is not set.  Trying default library: VM_global_library.vm
2015-01-12 21:25:12,496 - Velocimacro : Default library not found.
2015-01-12 21:25:12,496 - Velocimacro : allowInline = true : VMs can be defined inline in templates
2015-01-12 21:25:12,496 - Velocimacro : allowInlineToOverride = false : VMs defined inline may NOT replace previous VM definitions
2015-01-12 21:25:12,496 - Velocimacro : allowInlineLocal = false : VMs defined inline will be global in scope if allowed.
2015-01-12 21:25:12,496 - Velocimacro : autoload off : VM system will not automatically reload global library macros
2015-01-12 21:25:12,496 - Velocimacro : Velocimacro : initialization complete.
2015-01-12 21:25:12,496 - RuntimeInstance successfully initialized.
2015-01-12 21:25:12,512 - Velocimacro : added #mixedcase(  name ) : source = class.vm
2015-01-12 21:25:12,512 - Velocimacro : added #lowercase(  name ) : source = class.vm
2015-01-12 21:25:12,512 - Velocimacro : added #uppercase(  name ) : source = class.vm
2015-01-12 21:25:12,512 - Velocimacro : added #comment(  indent name ) : source = class.vm
2015-01-12 21:25:12,512 - Velocimacro : added #debug(  text ) : source = class.vm
2015-01-12 21:25:12,559 - ResourceManager : found class.vm with loader org.apache.velocity.runtime.resource.loader.ClasspathResourceLoader
2015-01-12 21:25:12,637 - Left side ($name.getComment().length()) of '>' operation has null value. Operation not possible. class.vm [line 1, column 34]
2015-01-12 21:25:12,637 - Left side ($name.getComment().length()) of '>' operation has null value. Operation not possible. class.vm [line 1, column 34]
2015-01-12 21:25:12,637 - Left side ($name.getComment().length()) of '>' operation has null value. Operation not possible. class.vm [line 1, column 34]
2015-01-12 21:25:12,637 - Left side ($name.getComment().length()) of '>' operation has null value. Operation not possible. class.vm [line 1, column 34]
2015-01-12 21:25:12,637 - Left side ($name.getComment().length()) of '>' operation has null value. Operation not possible. class.vm [line 1, column 34]
2015-01-12 21:25:12,637 - Left side ($name.getComment().length()) of '>' operation has null value. Operation not possible. class.vm [line 1, column 34]
2015-01-12 21:25:12,637 - Left side ($name.getComment().length()) of '>' operation has null value. Operation not possible. class.vm [line 1, column 34]
2015-01-12 21:25:12,637 - Left side ($name.getComment().length()) of '>' operation has null value. Operation not possible. class.vm [line 1, column 34]
2015-01-12 21:25:12,637 - Left side ($name.getComment().length()) of '>' operation has null value. Operation not possible. class.vm [line 1, column 34]
2015-01-12 21:25:12,637 - Left side ($name.getComment().length()) of '>' operation has null value. Operation not possible. class.vm [line 1, column 34]
2015-01-12 21:25:12,637 - Left side ($name.getComment().length()) of '>' operation has null value. Operation not possible. class.vm [line 1, column 34]
2015-01-12 21:25:12,652 - Left side ($name.getComment().length()) of '>' operation has null value. Operation not possible. class.vm [line 1, column 34]
2015-01-12 21:25:12,696 - ResourceManager : found get.vm with loader org.apache.velocity.runtime.resource.loader.ClasspathResourceLoader
2015-01-12 21:25:12,696 - Null reference [template 'get.vm', line 235, column 38] : $type cannot be resolved.
2015-01-12 21:25:12,696 - Null reference [template 'get.vm', line 247, column 35] : $type cannot be resolved.
2015-01-12 21:25:12,696 - Null reference [template 'get.vm', line 257, column 38] : $type cannot be resolved.
2015-01-12 21:25:12,696 - Null reference [template 'get.vm', line 267, column 35] : $type cannot be resolved.
2015-01-12 21:25:12,727 - ResourceManager : found add.vm with loader org.apache.velocity.runtime.resource.loader.ClasspathResourceLoader
2015-01-12 21:25:12,743 - ResourceManager : found set.vm with loader org.apache.velocity.runtime.resource.loader.ClasspathResourceLoader
2015-01-12 21:25:12,774 - ResourceManager : found remove.vm with loader org.apache.velocity.runtime.resource.loader.ClasspathResourceLoader
2015-01-12 21:25:12,790 - ResourceManager : found removeall.vm with loader org.apache.velocity.runtime.resource.loader.ClasspathResourceLoader
2015-01-12 21:25:12,790 - Left side ($name.getComment().length()) of '>' operation has null value. Operation not possible. class.vm [line 1, column 34]
2015-01-12 21:25:12,790 - Left side ($name.getComment().length()) of '>' operation has null value. Operation not possible. class.vm [line 1, column 34]
2015-01-12 21:25:12,790 - Left side ($name.getComment().length()) of '>' operation has null value. Operation not possible. class.vm [line 1, column 34]
2015-01-12 21:25:12,852 - ResourceManager : found get.vm with loader org.apache.velocity.runtime.resource.loader.ClasspathResourceLoader
2015-01-12 21:25:12,852 - Null reference [template 'get.vm', line 235, column 38] : $type cannot be resolved.
2015-01-12 21:25:12,852 - Null reference [template 'get.vm', line 247, column 35] : $type cannot be resolved.
2015-01-12 21:25:12,852 - Null reference [template 'get.vm', line 257, column 38] : $type cannot be resolved.
2015-01-12 21:25:12,852 - Null reference [template 'get.vm', line 267, column 35] : $type cannot be resolved.
2015-01-12 21:25:12,883 - ResourceManager : found add.vm with loader org.apache.velocity.runtime.resource.loader.ClasspathResourceLoader
2015-01-12 21:25:12,883 - ResourceManager : found set.vm with loader org.apache.velocity.runtime.resource.loader.ClasspathResourceLoader
2015-01-12 21:25:12,899 - ResourceManager : found remove.vm with loader org.apache.velocity.runtime.resource.loader.ClasspathResourceLoader
2015-01-12 21:25:12,915 - ResourceManager : found removeall.vm with loader org.apache.velocity.runtime.resource.loader.ClasspathResourceLoader
2015-01-12 21:25:12,930 - Left side ($name.getComment().length()) of '>' operation has null value. Operation not possible. class.vm [line 1, column 34]
2015-01-12 21:25:12,930 - Left side ($name.getComment().length()) of '>' operation has null value. Operation not possible. class.vm [line 1, column 34]
2015-01-12 21:25:12,930 - Left side ($name.getComment().length()) of '>' operation has null value. Operation not possible. class.vm [line 1, column 34]
2015-01-12 21:25:12,930 - Left side ($name.getComment().length()) of '>' operation has null value. Operation not possible. class.vm [line 1, column 34]
2015-01-12 21:25:12,930 - Left side ($name.getComment().length()) of '>' operation has null value. Operation not possible. class.vm [line 1, column 34]
2015-01-12 21:25:12,930 - Left side ($name.getComment().length()) of '>' operation has null value. Operation not possible. class.vm [line 1, column 34]
2015-01-12 21:25:12,930 - Left side ($name.getComment().length()) of '>' operation has null value. Operation not possible. class.vm [line 1, column 34]
2015-01-12 21:25:12,930 - Left side ($name.getComment().length()) of '>' operation has null value. Operation not possible. class.vm [line 1, column 34]
2015-01-12 21:25:12,930 - Left side ($name.getComment().length()) of '>' operation has null value. Operation not possible. class.vm [line 1, column 34]
2015-01-12 21:25:12,930 - Left side ($name.getComment().length()) of '>' operation has null value. Operation not possible. class.vm [line 1, column 34]
2015-01-12 21:25:12,930 - Left side ($name.getComment().length()) of '>' operation has null value. Operation not possible. class.vm [line 1, column 34]
2015-01-12 21:25:12,930 - Left side ($name.getComment().length()) of '>' operation has null value. Operation not possible. class.vm [line 1, column 34]
2015-01-12 21:25:12,977 - ResourceManager : found get.vm with loader org.apache.velocity.runtime.resource.loader.ClasspathResourceLoader
2015-01-12 21:25:12,977 - Null reference [template 'get.vm', line 235, column 38] : $type cannot be resolved.
2015-01-12 21:25:12,977 - Null reference [template 'get.vm', line 247, column 35] : $type cannot be resolved.
2015-01-12 21:25:12,977 - Null reference [template 'get.vm', line 257, column 38] : $type cannot be resolved.
2015-01-12 21:25:12,977 - Null reference [template 'get.vm', line 267, column 35] : $type cannot be resolved.
2015-01-12 21:25:12,993 - ResourceManager : found add.vm with loader org.apache.velocity.runtime.resource.loader.ClasspathResourceLoader
2015-01-12 21:25:13,008 - ResourceManager : found set.vm with loader org.apache.velocity.runtime.resource.loader.ClasspathResourceLoader
2015-01-12 21:25:13,024 - ResourceManager : found remove.vm with loader org.apache.velocity.runtime.resource.loader.ClasspathResourceLoader
2015-01-12 21:25:13,040 - ResourceManager : found removeall.vm with loader org.apache.velocity.runtime.resource.loader.ClasspathResourceLoader
2015-01-12 21:25:13,055 - ResourceManager : found get.vm with loader org.apache.velocity.runtime.resource.loader.ClasspathResourceLoader
2015-01-12 21:25:13,071 - Null reference [template 'get.vm', line 235, column 38] : $type cannot be resolved.
2015-01-12 21:25:13,071 - Null reference [template 'get.vm', line 247, column 35] : $type cannot be resolved.
2015-01-12 21:25:13,071 - Null reference [template 'get.vm', line 257, column 38] : $type cannot be resolved.
2015-01-12 21:25:13,071 - Null reference [template 'get.vm', line 267, column 35] : $type cannot be resolved.
2015-01-12 21:25:13,086 - ResourceManager : found add.vm with loader org.apache.velocity.runtime.resource.loader.ClasspathResourceLoader
2015-01-12 21:25:13,086 - ResourceManager : found set.vm with loader org.apache.velocity.runtime.resource.loader.ClasspathResourceLoader
2015-01-12 21:25:13,102 - ResourceManager : found remove.vm with loader org.apache.velocity.runtime.resource.loader.ClasspathResourceLoader
2015-01-12 21:25:13,102 - ResourceManager : found removeall.vm with loader org.apache.velocity.runtime.resource.loader.ClasspathResourceLoader
2015-01-12 21:25:13,102 - Left side ($name.getComment().length()) of '>' operation has null value. Operation not possible. class.vm [line 1, column 34]
2015-01-12 21:25:13,102 - Left side ($name.getComment().length()) of '>' operation has null value. Operation not possible. class.vm [line 1, column 34]
2015-01-12 21:25:13,102 - Left side ($name.getComment().length()) of '>' operation has null value. Operation not possible. class.vm [line 1, column 34]
2015-01-12 21:25:13,102 - Left side ($name.getComment().length()) of '>' operation has null value. Operation not possible. class.vm [line 1, column 34]
2015-01-12 21:25:13,102 - Left side ($name.getComment().length()) of '>' operation has null value. Operation not possible. class.vm [line 1, column 34]
2015-01-12 21:25:13,118 - Left side ($name.getComment().length()) of '>' operation has null value. Operation not possible. class.vm [line 1, column 34]
2015-01-12 21:25:13,149 - Left side ($name.getComment().length()) of '>' operation has null value. Operation not possible. class.vm [line 1, column 34]
2015-01-12 21:25:13,149 - Left side ($name.getComment().length()) of '>' operation has null value. Operation not possible. class.vm [line 1, column 34]
2015-01-12 21:25:13,149 - Left side ($name.getComment().length()) of '>' operation has null value. Operation not possible. class.vm [line 1, column 34]
2015-01-12 21:25:13,180 - ResourceManager : found get.vm with loader org.apache.velocity.runtime.resource.loader.ClasspathResourceLoader
2015-01-12 21:25:13,180 - Null reference [template 'get.vm', line 235, column 38] : $type cannot be resolved.
2015-01-12 21:25:13,180 - Null reference [template 'get.vm', line 247, column 35] : $type cannot be resolved.
2015-01-12 21:25:13,180 - Null reference [template 'get.vm', line 257, column 38] : $type cannot be resolved.
2015-01-12 21:25:13,180 - Null reference [template 'get.vm', line 267, column 35] : $type cannot be resolved.
2015-01-12 21:25:13,196 - ResourceManager : found add.vm with loader org.apache.velocity.runtime.resource.loader.ClasspathResourceLoader
2015-01-12 21:25:13,196 - ResourceManager : found set.vm with loader org.apache.velocity.runtime.resource.loader.ClasspathResourceLoader
2015-01-12 21:25:13,211 - ResourceManager : found remove.vm with loader org.apache.velocity.runtime.resource.loader.ClasspathResourceLoader
2015-01-12 21:25:13,211 - ResourceManager : found removeall.vm with loader org.apache.velocity.runtime.resource.loader.ClasspathResourceLoader
2015-01-12 21:25:13,243 - ResourceManager : found get.vm with loader org.apache.velocity.runtime.resource.loader.ClasspathResourceLoader
2015-01-12 21:25:13,243 - Null reference [template 'get.vm', line 235, column 38] : $type cannot be resolved.
2015-01-12 21:25:13,243 - Null reference [template 'get.vm', line 247, column 35] : $type cannot be resolved.
2015-01-12 21:25:13,243 - Null reference [template 'get.vm', line 257, column 38] : $type cannot be resolved.
2015-01-12 21:25:13,243 - Null reference [template 'get.vm', line 267, column 35] : $type cannot be resolved.
2015-01-12 21:25:13,258 - ResourceManager : found add.vm with loader org.apache.velocity.runtime.resource.loader.ClasspathResourceLoader
2015-01-12 21:25:13,258 - ResourceManager : found set.vm with loader org.apache.velocity.runtime.resource.loader.ClasspathResourceLoader
2015-01-12 21:25:13,274 - ResourceManager : found remove.vm with loader org.apache.velocity.runtime.resource.loader.ClasspathResourceLoader
2015-01-12 21:25:13,274 - ResourceManager : found removeall.vm with loader org.apache.velocity.runtime.resource.loader.ClasspathResourceLoader
2015-01-12 21:25:13,316 - ResourceManager : found get.vm with loader org.apache.velocity.runtime.resource.loader.ClasspathResourceLoader
2015-01-12 21:25:13,318 - Null reference [template 'get.vm', line 235, column 38] : $type cannot be resolved.
2015-01-12 21:25:13,319 - Null reference [template 'get.vm', line 247, column 35] : $type cannot be resolved.
2015-01-12 21:25:13,319 - Null reference [template 'get.vm', line 257, column 38] : $type cannot be resolved.
2015-01-12 21:25:13,319 - Null reference [template 'get.vm', line 267, column 35] : $type cannot be resolved.
2015-01-12 21:25:13,332 - ResourceManager : found add.vm with loader org.apache.velocity.runtime.resource.loader.ClasspathResourceLoader
2015-01-12 21:25:13,339 - ResourceManager : found set.vm with loader org.apache.velocity.runtime.resource.loader.ClasspathResourceLoader
2015-01-12 21:25:13,352 - ResourceManager : found remove.vm with loader org.apache.velocity.runtime.resource.loader.ClasspathResourceLoader
2015-01-12 21:25:13,356 - ResourceManager : found removeall.vm with loader org.apache.velocity.runtime.resource.loader.ClasspathResourceLoader
2015-01-12 21:25:13,386 - ResourceManager : found get.vm with loader org.apache.velocity.runtime.resource.loader.ClasspathResourceLoader
2015-01-12 21:25:13,388 - Null reference [template 'get.vm', line 235, column 38] : $type cannot be resolved.
2015-01-12 21:25:13,388 - Null reference [template 'get.vm', line 247, column 35] : $type cannot be resolved.
2015-01-12 21:25:13,388 - Null reference [template 'get.vm', line 257, column 38] : $type cannot be resolved.
2015-01-12 21:25:13,388 - Null reference [template 'get.vm', line 267, column 35] : $type cannot be resolved.
2015-01-12 21:25:13,399 - ResourceManager : found add.vm with loader org.apache.velocity.runtime.resource.loader.ClasspathResourceLoader
2015-01-12 21:25:13,407 - ResourceManager : found set.vm with loader org.apache.velocity.runtime.resource.loader.ClasspathResourceLoader
2015-01-12 21:25:13,417 - ResourceManager : found remove.vm with loader org.apache.velocity.runtime.resource.loader.ClasspathResourceLoader
2015-01-12 21:25:13,420 - ResourceManager : found removeall.vm with loader org.apache.velocity.runtime.resource.loader.ClasspathResourceLoader
2015-01-12 21:25:13,448 - ResourceManager : found get.vm with loader org.apache.velocity.runtime.resource.loader.ClasspathResourceLoader
2015-01-12 21:25:13,452 - Null reference [template 'get.vm', line 235, column 38] : $type cannot be resolved.
2015-01-12 21:25:13,452 - Null reference [template 'get.vm', line 247, column 35] : $type cannot be resolved.
2015-01-12 21:25:13,453 - Null reference [template 'get.vm', line 257, column 38] : $type cannot be resolved.
2015-01-12 21:25:13,453 - Null reference [template 'get.vm', line 267, column 35] : $type cannot be resolved.
2015-01-12 21:25:13,464 - ResourceManager : found add.vm with loader org.apache.velocity.runtime.resource.loader.ClasspathResourceLoader
2015-01-12 21:25:13,475 - ResourceManager : found set.vm with loader org.apache.velocity.runtime.resource.loader.ClasspathResourceLoader
2015-01-12 21:25:13,489 - ResourceManager : found remove.vm with loader org.apache.velocity.runtime.resource.loader.ClasspathResourceLoader
2015-01-12 21:25:13,494 - ResourceManager : found removeall.vm with loader org.apache.velocity.runtime.resource.loader.ClasspathResourceLoader
2015-01-12 21:25:13,512 - ResourceManager : found get.vm with loader org.apache.velocity.runtime.resource.loader.ClasspathResourceLoader
2015-01-12 21:25:13,527 - Null reference [template 'get.vm', line 235, column 38] : $type cannot be resolved.
2015-01-12 21:25:13,527 - Null reference [template 'get.vm', line 247, column 35] : $type cannot be resolved.
2015-01-12 21:25:13,527 - Null reference [template 'get.vm', line 257, column 38] : $type cannot be resolved.
2015-01-12 21:25:13,527 - Null reference [template 'get.vm', line 267, column 35] : $type cannot be resolved.
2015-01-12 21:25:13,543 - ResourceManager : found add.vm with loader org.apache.velocity.runtime.resource.loader.ClasspathResourceLoader
2015-01-12 21:25:13,543 - ResourceManager : found set.vm with loader org.apache.velocity.runtime.resource.loader.ClasspathResourceLoader
2015-01-12 21:25:13,559 - ResourceManager : found remove.vm with loader org.apache.velocity.runtime.resource.loader.ClasspathResourceLoader
2015-01-12 21:25:13,559 - ResourceManager : found removeall.vm with loader org.apache.velocity.runtime.resource.loader.ClasspathResourceLoader
2015-01-12 21:25:13,599 - ResourceManager : found get.vm with loader org.apache.velocity.runtime.resource.loader.ClasspathResourceLoader
2015-01-12 21:25:13,602 - Null reference [template 'get.vm', line 235, column 38] : $type cannot be resolved.
2015-01-12 21:25:13,602 - Null reference [template 'get.vm', line 247, column 35] : $type cannot be resolved.
2015-01-12 21:25:13,603 - Null reference [template 'get.vm', line 257, column 38] : $type cannot be resolved.
2015-01-12 21:25:13,603 - Null reference [template 'get.vm', line 267, column 35] : $type cannot be resolved.
2015-01-12 21:25:13,627 - ResourceManager : found add.vm with loader org.apache.velocity.runtime.resource.loader.ClasspathResourceLoader
2015-01-12 21:25:13,634 - ResourceManager : found set.vm with loader org.apache.velocity.runtime.resource.loader.ClasspathResourceLoader
2015-01-12 21:25:13,645 - ResourceManager : found remove.vm with loader org.apache.velocity.runtime.resource.loader.ClasspathResourceLoader
2015-01-12 21:25:13,649 - ResourceManager : found removeall.vm with loader org.apache.velocity.runtime.resource.loader.ClasspathResourceLoader
2015-01-12 21:25:13,652 - Left side ($name.getComment().length()) of '>' operation has null value. Operation not possible. class.vm [line 1, column 34]
2015-01-12 21:25:13,653 - Left side ($name.getComment().length()) of '>' operation has null value. Operation not possible. class.vm [line 1, column 34]
2015-01-12 21:25:13,653 - Left side ($name.getComment().length()) of '>' operation has null value. Operation not possible. class.vm [line 1, column 34]
2015-01-12 21:25:13,653 - Left side ($name.getComment().length()) of '>' operation has null value. Operation not possible. class.vm [line 1, column 34]
2015-01-12 21:25:13,653 - Left side ($name.getComment().length()) of '>' operation has null value. Operation not possible. class.vm [line 1, column 34]
2015-01-12 21:25:13,677 - Left side ($name.getComment().length()) of '>' operation has null value. Operation not possible. class.vm [line 1, column 34]
2015-01-12 21:25:13,698 - ResourceManager : found get.vm with loader org.apache.velocity.runtime.resource.loader.ClasspathResourceLoader
2015-01-12 21:25:13,700 - Null reference [template 'get.vm', line 235, column 38] : $type cannot be resolved.
2015-01-12 21:25:13,700 - Null reference [template 'get.vm', line 247, column 35] : $type cannot be resolved.
2015-01-12 21:25:13,701 - Null reference [template 'get.vm', line 257, column 38] : $type cannot be resolved.
2015-01-12 21:25:13,701 - Null reference [template 'get.vm', line 267, column 35] : $type cannot be resolved.
2015-01-12 21:25:13,715 - ResourceManager : found add.vm with loader org.apache.velocity.runtime.resource.loader.ClasspathResourceLoader
2015-01-12 21:25:13,727 - ResourceManager : found set.vm with loader org.apache.velocity.runtime.resource.loader.ClasspathResourceLoader
2015-01-12 21:25:13,740 - ResourceManager : found remove.vm with loader org.apache.velocity.runtime.resource.loader.ClasspathResourceLoader
2015-01-12 21:25:13,745 - ResourceManager : found removeall.vm with loader org.apache.velocity.runtime.resource.loader.ClasspathResourceLoader
2015-01-12 21:25:13,768 - ResourceManager : found get.vm with loader org.apache.velocity.runtime.resource.loader.ClasspathResourceLoader
2015-01-12 21:25:13,770 - Null reference [template 'get.vm', line 235, column 38] : $type cannot be resolved.
2015-01-12 21:25:13,770 - Null reference [template 'get.vm', line 247, column 35] : $type cannot be resolved.
2015-01-12 21:25:13,771 - Null reference [template 'get.vm', line 257, column 38] : $type cannot be resolved.
2015-01-12 21:25:13,771 - Null reference [template 'get.vm', line 267, column 35] : $type cannot be resolved.
2015-01-12 21:25:13,781 - ResourceManager : found add.vm with loader org.apache.velocity.runtime.resource.loader.ClasspathResourceLoader
2015-01-12 21:25:13,789 - ResourceManager : found set.vm with loader org.apache.velocity.runtime.resource.loader.ClasspathResourceLoader
2015-01-12 21:25:13,801 - ResourceManager : found remove.vm with loader org.apache.velocity.runtime.resource.loader.ClasspathResourceLoader
2015-01-12 21:25:13,805 - ResourceManager : found removeall.vm with loader org.apache.velocity.runtime.resource.loader.ClasspathResourceLoader
2015-01-12 21:25:13,808 - Left side ($name.getComment().length()) of '>' operation has null value. Operation not possible. class.vm [line 1, column 34]
2015-01-12 21:25:13,808 - Left side ($name.getComment().length()) of '>' operation has null value. Operation not possible. class.vm [line 1, column 34]
2015-01-12 21:25:13,808 - Left side ($name.getComment().length()) of '>' operation has null value. Operation not possible. class.vm [line 1, column 34]
2015-01-12 21:25:13,831 - ResourceManager : found get.vm with loader org.apache.velocity.runtime.resource.loader.ClasspathResourceLoader
2015-01-12 21:25:13,833 - Null reference [template 'get.vm', line 235, column 38] : $type cannot be resolved.
2015-01-12 21:25:13,833 - Null reference [template 'get.vm', line 247, column 35] : $type cannot be resolved.
2015-01-12 21:25:13,834 - Null reference [template 'get.vm', line 257, column 38] : $type cannot be resolved.
2015-01-12 21:25:13,834 - Null reference [template 'get.vm', line 267, column 35] : $type cannot be resolved.
2015-01-12 21:25:13,843 - ResourceManager : found add.vm with loader org.apache.velocity.runtime.resource.loader.ClasspathResourceLoader
2015-01-12 21:25:13,849 - ResourceManager : found set.vm with loader org.apache.velocity.runtime.resource.loader.ClasspathResourceLoader
2015-01-12 21:25:13,860 - ResourceManager : found remove.vm with loader org.apache.velocity.runtime.resource.loader.ClasspathResourceLoader
2015-01-12 21:25:13,864 - ResourceManager : found removeall.vm with loader org.apache.velocity.runtime.resource.loader.ClasspathResourceLoader
2015-01-12 21:25:13,888 - ResourceManager : found get.vm with loader org.apache.velocity.runtime.resource.loader.ClasspathResourceLoader
2015-01-12 21:25:13,890 - Null reference [template 'get.vm', line 235, column 38] : $type cannot be resolved.
2015-01-12 21:25:13,892 - Null reference [template 'get.vm', line 247, column 35] : $type cannot be resolved.
2015-01-12 21:25:13,892 - Null reference [template 'get.vm', line 257, column 38] : $type cannot be resolved.
2015-01-12 21:25:13,892 - Null reference [template 'get.vm', line 267, column 35] : $type cannot be resolved.
2015-01-12 21:25:13,905 - ResourceManager : found add.vm with loader org.apache.velocity.runtime.resource.loader.ClasspathResourceLoader
2015-01-12 21:25:13,911 - ResourceManager : found set.vm with loader org.apache.velocity.runtime.resource.loader.ClasspathResourceLoader
2015-01-12 21:25:13,922 - ResourceManager : found remove.vm with loader org.apache.velocity.runtime.resource.loader.ClasspathResourceLoader
2015-01-12 21:25:13,926 - ResourceManager : found removeall.vm with loader org.apache.velocity.runtime.resource.loader.ClasspathResourceLoader
2015-01-12 21:25:13,947 - ResourceManager : found get.vm with loader org.apache.velocity.runtime.resource.loader.ClasspathResourceLoader
2015-01-12 21:25:13,949 - Null reference [template 'get.vm', line 235, column 38] : $type cannot be resolved.
2015-01-12 21:25:13,949 - Null reference [template 'get.vm', line 247, column 35] : $type cannot be resolved.
2015-01-12 21:25:13,950 - Null reference [template 'get.vm', line 257, column 38] : $type cannot be resolved.
2015-01-12 21:25:13,950 - Null reference [template 'get.vm', line 267, column 35] : $type cannot be resolved.
2015-01-12 21:25:13,966 - ResourceManager : found add.vm with loader org.apache.velocity.runtime.resource.loader.ClasspathResourceLoader
2015-01-12 21:25:13,972 - ResourceManager : found set.vm with loader org.apache.velocity.runtime.resource.loader.ClasspathResourceLoader
2015-01-12 21:25:13,981 - ResourceManager : found remove.vm with loader org.apache.velocity.runtime.resource.loader.ClasspathResourceLoader
2015-01-12 21:25:13,984 - ResourceManager : found removeall.vm with loader org.apache.velocity.runtime.resource.loader.ClasspathResourceLoader
2015-01-12 21:25:13,986 - Left side ($name.getComment().length()) of '>' operation has null value. Operation not possible. class.vm [line 1, column 34]
2015-01-12 21:25:13,987 - Left side ($name.getComment().length()) of '>' operation has null value. Operation not possible. class.vm [line 1, column 34]
2015-01-12 21:25:13,987 - Left side ($name.getComment().length()) of '>' operation has null value. Operation not possible. class.vm [line 1, column 34]
2015-01-12 21:25:13,987 - Left side ($name.getComment().length()) of '>' operation has null value. Operation not possible. class.vm [line 1, column 34]
2015-01-12 21:25:13,987 - Left side ($name.getComment().length()) of '>' operation has null value. Operation not possible. class.vm [line 1, column 34]
2015-01-12 21:25:13,987 - Left side ($name.getComment().length()) of '>' operation has null value. Operation not possible. class.vm [line 1, column 34]
2015-01-12 21:25:13,988 - Left side ($name.getComment().length()) of '>' operation has null value. Operation not possible. class.vm [line 1, column 34]
2015-01-12 21:25:13,988 - Left side ($name.getComment().length()) of '>' operation has null value. Operation not possible. class.vm [line 1, column 34]
2015-01-12 21:25:13,988 - Left side ($name.getComment().length()) of '>' operation has null value. Operation not possible. class.vm [line 1, column 34]
2015-01-12 21:25:13,988 - Left side ($name.getComment().length()) of '>' operation has null value. Operation not possible. class.vm [line 1, column 34]
2015-01-12 21:25:13,988 - Left side ($name.getComment().length()) of '>' operation has null value. Operation not possible. class.vm [line 1, column 34]
2015-01-12 21:25:13,988 - Left side ($name.getComment().length()) of '>' operation has null value. Operation not possible. class.vm [line 1, column 34]
2015-01-12 21:25:13,988 - Left side ($name.getComment().length()) of '>' operation has null value. Operation not possible. class.vm [line 1, column 34]
2015-01-12 21:25:13,988 - Left side ($name.getComment().length()) of '>' operation has null value. Operation not possible. class.vm [line 1, column 34]
2015-01-12 21:25:13,988 - Left side ($name.getComment().length()) of '>' operation has null value. Operation not possible. class.vm [line 1, column 34]
2015-01-12 21:25:13,988 - Left side ($name.getComment().length()) of '>' operation has null value. Operation not possible. class.vm [line 1, column 34]
2015-01-12 21:25:13,989 - Left side ($name.getComment().length()) of '>' operation has null value. Operation not possible. class.vm [line 1, column 34]
2015-01-12 21:25:13,989 - Left side ($name.getComment().length()) of '>' operation has null value. Operation not possible. class.vm [line 1, column 34]
2015-01-12 21:25:13,989 - Left side ($name.getComment().length()) of '>' operation has null value. Operation not possible. class.vm [line 1, column 34]
2015-01-12 21:25:13,989 - Left side ($name.getComment().length()) of '>' operation has null value. Operation not possible. class.vm [line 1, column 34]
2015-01-12 21:25:13,989 - Left side ($name.getComment().length()) of '>' operation has null value. Operation not possible. class.vm [line 1, column 34]
2015-01-12 21:25:13,990 - Left side ($name.getComment().length()) of '>' operation has null value. Operation not possible. class.vm [line 1, column 34]
2015-01-12 21:25:13,990 - Left side ($name.getComment().length()) of '>' operation has null value. Operation not possible. class.vm [line 1, column 34]
2015-01-12 21:25:13,990 - Left side ($name.getComment().length()) of '>' operation has null value. Operation not possible. class.vm [line 1, column 34]
2015-01-12 21:25:14,004 - ResourceManager : found get.vm with loader org.apache.velocity.runtime.resource.loader.ClasspathResourceLoader
2015-01-12 21:25:14,005 - Null reference [template 'get.vm', line 235, column 38] : $type cannot be resolved.
2015-01-12 21:25:14,006 - Null reference [template 'get.vm', line 247, column 35] : $type cannot be resolved.
2015-01-12 21:25:14,006 - Null reference [template 'get.vm', line 257, column 38] : $type cannot be resolved.
2015-01-12 21:25:14,006 - Null reference [template 'get.vm', line 267, column 35] : $type cannot be resolved.
2015-01-12 21:25:14,013 - ResourceManager : found add.vm with loader org.apache.velocity.runtime.resource.loader.ClasspathResourceLoader
2015-01-12 21:25:14,018 - ResourceManager : found set.vm with loader org.apache.velocity.runtime.resource.loader.ClasspathResourceLoader
2015-01-12 21:25:14,027 - ResourceManager : found remove.vm with loader org.apache.velocity.runtime.resource.loader.ClasspathResourceLoader
2015-01-12 21:25:14,030 - ResourceManager : found removeall.vm with loader org.apache.velocity.runtime.resource.loader.ClasspathResourceLoader
2015-01-12 21:25:14,044 - ResourceManager : found get.vm with loader org.apache.velocity.runtime.resource.loader.ClasspathResourceLoader
2015-01-12 21:25:14,046 - Null reference [template 'get.vm', line 235, column 38] : $type cannot be resolved.
2015-01-12 21:25:14,046 - Null reference [template 'get.vm', line 247, column 35] : $type cannot be resolved.
2015-01-12 21:25:14,046 - Null reference [template 'get.vm', line 257, column 38] : $type cannot be resolved.
2015-01-12 21:25:14,046 - Null reference [template 'get.vm', line 267, column 35] : $type cannot be resolved.
2015-01-12 21:25:14,051 - ResourceManager : found add.vm with loader org.apache.velocity.runtime.resource.loader.ClasspathResourceLoader
2015-01-12 21:25:14,054 - ResourceManager : found set.vm with loader org.apache.velocity.runtime.resource.loader.ClasspathResourceLoader
2015-01-12 21:25:14,059 - ResourceManager : found remove.vm with loader org.apache.velocity.runtime.resource.loader.ClasspathResourceLoader
2015-01-12 21:25:14,061 - ResourceManager : found removeall.vm with loader org.apache.velocity.runtime.resource.loader.ClasspathResourceLoader
2015-01-12 21:25:14,075 - ResourceManager : found get.vm with loader org.apache.velocity.runtime.resource.loader.ClasspathResourceLoader
2015-01-12 21:25:14,076 - Null reference [template 'get.vm', line 235, column 38] : $type cannot be resolved.
2015-01-12 21:25:14,077 - Null reference [template 'get.vm', line 247, column 35] : $type cannot be resolved.
2015-01-12 21:25:14,077 - Null reference [template 'get.vm', line 257, column 38] : $type cannot be resolved.
2015-01-12 21:25:14,077 - Null reference [template 'get.vm', line 267, column 35] : $type cannot be resolved.
2015-01-12 21:25:14,083 - ResourceManager : found add.vm with loader org.apache.velocity.runtime.resource.loader.ClasspathResourceLoader
2015-01-12 21:25:14,088 - ResourceManager : found set.vm with loader org.apache.velocity.runtime.resource.loader.ClasspathResourceLoader
2015-01-12 21:25:14,094 - ResourceManager : found remove.vm with loader org.apache.velocity.runtime.resource.loader.ClasspathResourceLoader
2015-01-12 21:25:14,096 - ResourceManager : found removeall.vm with loader org.apache.velocity.runtime.resource.loader.ClasspathResourceLoader
2015-01-12 21:25:14,107 - ResourceManager : found get.vm with loader org.apache.velocity.runtime.resource.loader.ClasspathResourceLoader
2015-01-12 21:25:14,108 - Null reference [template 'get.vm', line 235, column 38] : $type cannot be resolved.
2015-01-12 21:25:14,109 - Null reference [template 'get.vm', line 247, column 35] : $type cannot be resolved.
2015-01-12 21:25:14,109 - Null reference [template 'get.vm', line 257, column 38] : $type cannot be resolved.
2015-01-12 21:25:14,109 - Null reference [template 'get.vm', line 267, column 35] : $type cannot be resolved.
2015-01-12 21:25:14,113 - ResourceManager : found add.vm with loader org.apache.velocity.runtime.resource.loader.ClasspathResourceLoader
2015-01-12 21:25:14,116 - ResourceManager : found set.vm with loader org.apache.velocity.runtime.resource.loader.ClasspathResourceLoader
2015-01-12 21:25:14,120 - ResourceManager : found remove.vm with loader org.apache.velocity.runtime.resource.loader.ClasspathResourceLoader
2015-01-12 21:25:14,122 - ResourceManager : found removeall.vm with loader org.apache.velocity.runtime.resource.loader.ClasspathResourceLoader
2015-01-12 21:25:14,131 - ResourceManager : found get.vm with loader org.apache.velocity.runtime.resource.loader.ClasspathResourceLoader
2015-01-12 21:25:14,132 - Null reference [template 'get.vm', line 235, column 38] : $type cannot be resolved.
2015-01-12 21:25:14,132 - Null reference [template 'get.vm', line 247, column 35] : $type cannot be resolved.
2015-01-12 21:25:14,133 - Null reference [template 'get.vm', line 257, column 38] : $type cannot be resolved.
2015-01-12 21:25:14,133 - Null reference [template 'get.vm', line 267, column 35] : $type cannot be resolved.
2015-01-12 21:25:14,138 - ResourceManager : found add.vm with loader org.apache.velocity.runtime.resource.loader.ClasspathResourceLoader
2015-01-12 21:25:14,146 - ResourceManager : found set.vm with loader org.apache.velocity.runtime.resource.loader.ClasspathResourceLoader
2015-01-12 21:25:14,150 - ResourceManager : found remove.vm with loader org.apache.velocity.runtime.resource.loader.ClasspathResourceLoader
2015-01-12 21:25:14,152 - ResourceManager : found removeall.vm with loader org.apache.velocity.runtime.resource.loader.ClasspathResourceLoader
2015-01-12 21:25:14,161 - ResourceManager : found get.vm with loader org.apache.velocity.runtime.resource.loader.ClasspathResourceLoader
2015-01-12 21:25:14,162 - Null reference [template 'get.vm', line 235, column 38] : $type cannot be resolved.
2015-01-12 21:25:14,162 - Null reference [template 'get.vm', line 247, column 35] : $type cannot be resolved.
2015-01-12 21:25:14,163 - Null reference [template 'get.vm', line 257, column 38] : $type cannot be resolved.
2015-01-12 21:25:14,163 - Null reference [template 'get.vm', line 267, column 35] : $type cannot be resolved.
2015-01-12 21:25:14,167 - ResourceManager : found add.vm with loader org.apache.velocity.runtime.resource.loader.ClasspathResourceLoader
2015-01-12 21:25:14,170 - ResourceManager : found set.vm with loader org.apache.velocity.runtime.resource.loader.ClasspathResourceLoader
2015-01-12 21:25:14,176 - ResourceManager : found remove.vm with loader org.apache.velocity.runtime.resource.loader.ClasspathResourceLoader
2015-01-12 21:25:14,179 - ResourceManager : found removeall.vm with loader org.apache.velocity.runtime.resource.loader.ClasspathResourceLoader
2015-01-12 21:25:14,193 - ResourceManager : found get.vm with loader org.apache.velocity.runtime.resource.loader.ClasspathResourceLoader
2015-01-12 21:25:14,194 - Null reference [template 'get.vm', line 235, column 38] : $type cannot be resolved.
2015-01-12 21:25:14,194 - Null reference [template 'get.vm', line 247, column 35] : $type cannot be resolved.
2015-01-12 21:25:14,195 - Null reference [template 'get.vm', line 257, column 38] : $type cannot be resolved.
2015-01-12 21:25:14,195 - Null reference [template 'get.vm', line 267, column 35] : $type cannot be resolved.
2015-01-12 21:25:14,199 - ResourceManager : found add.vm with loader org.apache.velocity.runtime.resource.loader.ClasspathResourceLoader
2015-01-12 21:25:14,201 - ResourceManager : found set.vm with loader org.apache.velocity.runtime.resource.loader.ClasspathResourceLoader
2015-01-12 21:25:14,206 - ResourceManager : found remove.vm with loader org.apache.velocity.runtime.resource.loader.ClasspathResourceLoader
2015-01-12 21:25:14,207 - ResourceManager : found removeall.vm with loader org.apache.velocity.runtime.resource.loader.ClasspathResourceLoader
2015-01-12 21:25:14,211 - Left side ($name.getComment().length()) of '>' operation has null value. Operation not possible. class.vm [line 1, column 34]
2015-01-12 21:25:14,211 - Left side ($name.getComment().length()) of '>' operation has null value. Operation not possible. class.vm [line 1, column 34]
2015-01-12 21:25:14,212 - Left side ($name.getComment().length()) of '>' operation has null value. Operation not possible. class.vm [line 1, column 34]
2015-01-12 21:25:14,225 - ResourceManager : found get.vm with loader org.apache.velocity.runtime.resource.loader.ClasspathResourceLoader
2015-01-12 21:25:14,226 - Null reference [template 'get.vm', line 235, column 38] : $type cannot be resolved.
2015-01-12 21:25:14,227 - Null reference [template 'get.vm', line 247, column 35] : $type cannot be resolved.
2015-01-12 21:25:14,227 - Null reference [template 'get.vm', line 257, column 38] : $type cannot be resolved.
2015-01-12 21:25:14,227 - Null reference [template 'get.vm', line 267, column 35] : $type cannot be resolved.
2015-01-12 21:25:14,233 - ResourceManager : found add.vm with loader org.apache.velocity.runtime.resource.loader.ClasspathResourceLoader
2015-01-12 21:25:14,238 - ResourceManager : found set.vm with loader org.apache.velocity.runtime.resource.loader.ClasspathResourceLoader
2015-01-12 21:25:14,244 - ResourceManager : found remove.vm with loader org.apache.velocity.runtime.resource.loader.ClasspathResourceLoader
2015-01-12 21:25:14,247 - ResourceManager : found removeall.vm with loader org.apache.velocity.runtime.resource.loader.ClasspathResourceLoader
2015-01-12 21:25:14,259 - ResourceManager : found get.vm with loader org.apache.velocity.runtime.resource.loader.ClasspathResourceLoader
2015-01-12 21:25:14,261 - Null reference [template 'get.vm', line 235, column 38] : $type cannot be resolved.
2015-01-12 21:25:14,261 - Null reference [template 'get.vm', line 247, column 35] : $type cannot be resolved.
2015-01-12 21:25:14,261 - Null reference [template 'get.vm', line 257, column 38] : $type cannot be resolved.
2015-01-12 21:25:14,261 - Null reference [template 'get.vm', line 267, column 35] : $type cannot be resolved.
2015-01-12 21:25:14,265 - ResourceManager : found add.vm with loader org.apache.velocity.runtime.resource.loader.ClasspathResourceLoader
2015-01-12 21:25:14,268 - ResourceManager : found set.vm with loader org.apache.velocity.runtime.resource.loader.ClasspathResourceLoader
2015-01-12 21:25:14,272 - ResourceManager : found remove.vm with loader org.apache.velocity.runtime.resource.loader.ClasspathResourceLoader
2015-01-12 21:25:14,274 - ResourceManager : found removeall.vm with loader org.apache.velocity.runtime.resource.loader.ClasspathResourceLoader
2015-01-12 21:25:14,281 - ResourceManager : found get.vm with loader org.apache.velocity.runtime.resource.loader.ClasspathResourceLoader
2015-01-12 21:25:14,282 - Null reference [template 'get.vm', line 235, column 38] : $type cannot be resolved.
2015-01-12 21:25:14,282 - Null reference [template 'get.vm', line 247, column 35] : $type cannot be resolved.
2015-01-12 21:25:14,282 - Null reference [template 'get.vm', line 257, column 38] : $type cannot be resolved.
2015-01-12 21:25:14,283 - Null reference [template 'get.vm', line 267, column 35] : $type cannot be resolved.
2015-01-12 21:25:14,286 - ResourceManager : found add.vm with loader org.apache.velocity.runtime.resource.loader.ClasspathResourceLoader
2015-01-12 21:25:14,288 - ResourceManager : found set.vm with loader org.apache.velocity.runtime.resource.loader.ClasspathResourceLoader
2015-01-12 21:25:14,292 - ResourceManager : found remove.vm with loader org.apache.velocity.runtime.resource.loader.ClasspathResourceLoader
2015-01-12 21:25:14,294 - ResourceManager : found removeall.vm with loader org.apache.velocity.runtime.resource.loader.ClasspathResourceLoader
2015-01-12 21:25:14,358 - ResourceManager : found get.vm with loader org.apache.velocity.runtime.resource.loader.ClasspathResourceLoader
2015-01-12 21:25:14,359 - Null reference [template 'get.vm', line 235, column 38] : $type cannot be resolved.
2015-01-12 21:25:14,359 - Null reference [template 'get.vm', line 247, column 35] : $type cannot be resolved.
2015-01-12 21:25:14,359 - Null reference [template 'get.vm', line 257, column 38] : $type cannot be resolved.
2015-01-12 21:25:14,359 - Null reference [template 'get.vm', line 267, column 35] : $type cannot be resolved.
2015-01-12 21:25:14,363 - ResourceManager : found add.vm with loader org.apache.velocity.runtime.resource.loader.ClasspathResourceLoader
2015-01-12 21:25:14,365 - ResourceManager : found set.vm with loader org.apache.velocity.runtime.resource.loader.ClasspathResourceLoader
2015-01-12 21:25:14,433 - ResourceManager : found remove.vm with loader org.apache.velocity.runtime.resource.loader.ClasspathResourceLoader
2015-01-12 21:25:14,436 - ResourceManager : found removeall.vm with loader org.apache.velocity.runtime.resource.loader.ClasspathResourceLoader
2015-01-12 21:25:14,443 - ResourceManager : found get.vm with loader org.apache.velocity.runtime.resource.loader.ClasspathResourceLoader
2015-01-12 21:25:14,444 - Null reference [template 'get.vm', line 235, column 38] : $type cannot be resolved.
2015-01-12 21:25:14,444 - Null reference [template 'get.vm', line 247, column 35] : $type cannot be resolved.
2015-01-12 21:25:14,444 - Null reference [template 'get.vm', line 257, column 38] : $type cannot be resolved.
2015-01-12 21:25:14,444 - Null reference [template 'get.vm', line 267, column 35] : $type cannot be resolved.
2015-01-12 21:25:14,448 - ResourceManager : found add.vm with loader org.apache.velocity.runtime.resource.loader.ClasspathResourceLoader
2015-01-12 21:25:14,450 - ResourceManager : found set.vm with loader org.apache.velocity.runtime.resource.loader.ClasspathResourceLoader
2015-01-12 21:25:14,453 - ResourceManager : found remove.vm with loader org.apache.velocity.runtime.resource.loader.ClasspathResourceLoader
2015-01-12 21:25:14,455 - ResourceManager : found removeall.vm with loader org.apache.velocity.runtime.resource.loader.ClasspathResourceLoader
2015-01-12 21:25:14,462 - ResourceManager : found get.vm with loader org.apache.velocity.runtime.resource.loader.ClasspathResourceLoader
2015-01-12 21:25:14,463 - Null reference [template 'get.vm', line 235, column 38] : $type cannot be resolved.
2015-01-12 21:25:14,463 - Null reference [template 'get.vm', line 247, column 35] : $type cannot be resolved.
2015-01-12 21:25:14,463 - Null reference [template 'get.vm', line 257, column 38] : $type cannot be resolved.
2015-01-12 21:25:14,464 - Null reference [template 'get.vm', line 267, column 35] : $type cannot be resolved.
2015-01-12 21:25:14,467 - ResourceManager : found add.vm with loader org.apache.velocity.runtime.resource.loader.ClasspathResourceLoader
2015-01-12 21:25:14,469 - ResourceManager : found set.vm with loader org.apache.velocity.runtime.resource.loader.ClasspathResourceLoader
2015-01-12 21:25:14,473 - ResourceManager : found remove.vm with loader org.apache.velocity.runtime.resource.loader.ClasspathResourceLoader
2015-01-12 21:25:14,475 - ResourceManager : found removeall.vm with loader org.apache.velocity.runtime.resource.loader.ClasspathResourceLoader
2015-01-12 21:25:14,493 - Left side ($name.getComment().length()) of '>' operation has null value. Operation not possible. class.vm [line 1, column 34]
2015-01-12 21:25:14,493 - Left side ($name.getComment().length()) of '>' operation has null value. Operation not possible. class.vm [line 1, column 34]
2015-01-12 21:25:14,493 - Left side ($name.getComment().length()) of '>' operation has null value. Operation not possible. class.vm [line 1, column 34]
2015-01-12 21:25:14,576 - Left side ($name.getComment().length()) of '>' operation has null value. Operation not possible. class.vm [line 1, column 34]
2015-01-12 21:25:14,576 - Left side ($name.getComment().length()) of '>' operation has null value. Operation not possible. class.vm [line 1, column 34]
2015-01-12 21:25:14,576 - Left side ($name.getComment().length()) of '>' operation has null value. Operation not possible. class.vm [line 1, column 34]
2015-01-12 21:25:14,576 - Left side ($name.getComment().length()) of '>' operation has null value. Operation not possible. class.vm [line 1, column 34]
2015-01-12 21:25:14,576 - Left side ($name.getComment().length()) of '>' operation has null value. Operation not possible. class.vm [line 1, column 34]
2015-01-12 21:25:14,576 - Left side ($name.getComment().length()) of '>' operation has null value. Operation not possible. class.vm [line 1, column 34]
2015-01-12 21:25:14,576 - Left side ($name.getComment().length()) of '>' operation has null value. Operation not possible. class.vm [line 1, column 34]
2015-01-12 21:25:14,576 - Left side ($name.getComment().length()) of '>' operation has null value. Operation not possible. class.vm [line 1, column 34]
2015-01-12 21:25:14,576 - Left side ($name.getComment().length()) of '>' operation has null value. Operation not possible. class.vm [line 1, column 34]
2015-01-12 21:25:14,576 - Left side ($name.getComment().length()) of '>' operation has null value. Operation not possible. class.vm [line 1, column 34]
2015-01-12 21:25:14,576 - Left side ($name.getComment().length()) of '>' operation has null value. Operation not possible. class.vm [line 1, column 34]
2015-01-12 21:25:14,576 - Left side ($name.getComment().length()) of '>' operation has null value. Operation not possible. class.vm [line 1, column 34]
2015-01-12 21:25:14,577 - Left side ($name.getComment().length()) of '>' operation has null value. Operation not possible. class.vm [line 1, column 34]
2015-01-12 21:25:14,577 - Left side ($name.getComment().length()) of '>' operation has null value. Operation not possible. class.vm [line 1, column 34]
2015-01-12 21:25:14,577 - Left side ($name.getComment().length()) of '>' operation has null value. Operation not possible. class.vm [line 1, column 34]
2015-01-12 21:25:14,577 - Left side ($name.getComment().length()) of '>' operation has null value. Operation not possible. class.vm [line 1, column 34]
2015-01-12 21:25:14,577 - Left side ($name.getComment().length()) of '>' operation has null value. Operation not possible. class.vm [line 1, column 34]
2015-01-12 21:25:14,577 - Left side ($name.getComment().length()) of '>' operation has null value. Operation not possible. class.vm [line 1, column 34]
2015-01-12 21:25:14,577 - Left side ($name.getComment().length()) of '>' operation has null value. Operation not possible. class.vm [line 1, column 34]
2015-01-12 21:25:14,577 - Left side ($name.getComment().length()) of '>' operation has null value. Operation not possible. class.vm [line 1, column 34]
2015-01-12 21:25:14,577 - Left side ($name.getComment().length()) of '>' operation has null value. Operation not possible. class.vm [line 1, column 34]
2015-01-12 21:25:14,577 - Left side ($name.getComment().length()) of '>' operation has null value. Operation not possible. class.vm [line 1, column 34]
2015-01-12 21:25:14,577 - Left side ($name.getComment().length()) of '>' operation has null value. Operation not possible. class.vm [line 1, column 34]
2015-01-12 21:25:14,577 - Left side ($name.getComment().length()) of '>' operation has null value. Operation not possible. class.vm [line 1, column 34]
2015-01-12 21:25:14,578 - Left side ($name.getComment().length()) of '>' operation has null value. Operation not possible. class.vm [line 1, column 34]
2015-01-12 21:25:14,578 - Left side ($name.getComment().length()) of '>' operation has null value. Operation not possible. class.vm [line 1, column 34]
2015-01-12 21:25:14,578 - Left side ($name.getComment().length()) of '>' operation has null value. Operation not possible. class.vm [line 1, column 34]
2015-01-12 21:25:14,578 - Left side ($name.getComment().length()) of '>' operation has null value. Operation not possible. class.vm [line 1, column 34]
2015-01-12 21:25:14,578 - Left side ($name.getComment().length()) of '>' operation has null value. Operation not possible. class.vm [line 1, column 34]
2015-01-12 21:25:14,578 - Left side ($name.getComment().length()) of '>' operation has null value. Operation not possible. class.vm [line 1, column 34]
2015-01-12 21:25:14,578 - Left side ($name.getComment().length()) of '>' operation has null value. Operation not possible. class.vm [line 1, column 34]
2015-01-12 21:25:14,578 - Left side ($name.getComment().length()) of '>' operation has null value. Operation not possible. class.vm [line 1, column 34]
2015-01-12 21:25:14,578 - Left side ($name.getComment().length()) of '>' operation has null value. Operation not possible. class.vm [line 1, column 34]
2015-01-12 21:25:14,578 - Left side ($name.getComment().length()) of '>' operation has null value. Operation not possible. class.vm [line 1, column 34]
2015-01-12 21:25:14,578 - Left side ($name.getComment().length()) of '>' operation has null value. Operation not possible. class.vm [line 1, column 34]
2015-01-12 21:25:14,578 - Left side ($name.getComment().length()) of '>' operation has null value. Operation not possible. class.vm [line 1, column 34]
2015-01-12 21:25:14,578 - Left side ($name.getComment().length()) of '>' operation has null value. Operation not possible. class.vm [line 1, column 34]
2015-01-12 21:25:14,578 - Left side ($name.getComment().length()) of '>' operation has null value. Operation not possible. class.vm [line 1, column 34]
2015-01-12 21:25:14,579 - Left side ($name.getComment().length()) of '>' operation has null value. Operation not possible. class.vm [line 1, column 34]
2015-01-12 21:25:14,579 - Left side ($name.getComment().length()) of '>' operation has null value. Operation not possible. class.vm [line 1, column 34]
2015-01-12 21:25:14,579 - Left side ($name.getComment().length()) of '>' operation has null value. Operation not possible. class.vm [line 1, column 34]
2015-01-12 21:25:14,579 - Left side ($name.getComment().length()) of '>' operation has null value. Operation not possible. class.vm [line 1, column 34]
2015-01-12 21:25:14,586 - ResourceManager : found get.vm with loader org.apache.velocity.runtime.resource.loader.ClasspathResourceLoader
2015-01-12 21:25:14,587 - Null reference [template 'get.vm', line 235, column 38] : $type cannot be resolved.
2015-01-12 21:25:14,587 - Null reference [template 'get.vm', line 247, column 35] : $type cannot be resolved.
2015-01-12 21:25:14,587 - Null reference [template 'get.vm', line 257, column 38] : $type cannot be resolved.
2015-01-12 21:25:14,587 - Null reference [template 'get.vm', line 267, column 35] : $type cannot be resolved.
2015-01-12 21:25:14,591 - ResourceManager : found add.vm with loader org.apache.velocity.runtime.resource.loader.ClasspathResourceLoader
2015-01-12 21:25:14,593 - ResourceManager : found set.vm with loader org.apache.velocity.runtime.resource.loader.ClasspathResourceLoader
2015-01-12 21:25:14,597 - ResourceManager : found remove.vm with loader org.apache.velocity.runtime.resource.loader.ClasspathResourceLoader
2015-01-12 21:25:14,599 - ResourceManager : found removeall.vm with loader org.apache.velocity.runtime.resource.loader.ClasspathResourceLoader
2015-01-12 21:25:14,606 - ResourceManager : found get.vm with loader org.apache.velocity.runtime.resource.loader.ClasspathResourceLoader
2015-01-12 21:25:14,607 - Null reference [template 'get.vm', line 235, column 38] : $type cannot be resolved.
2015-01-12 21:25:14,607 - Null reference [template 'get.vm', line 247, column 35] : $type cannot be resolved.
2015-01-12 21:25:14,607 - Null reference [template 'get.vm', line 257, column 38] : $type cannot be resolved.
2015-01-12 21:25:14,608 - Null reference [template 'get.vm', line 267, column 35] : $type cannot be resolved.
2015-01-12 21:25:14,613 - ResourceManager : found add.vm with loader org.apache.velocity.runtime.resource.loader.ClasspathResourceLoader
2015-01-12 21:25:14,615 - ResourceManager : found set.vm with loader org.apache.velocity.runtime.resource.loader.ClasspathResourceLoader
2015-01-12 21:25:14,619 - ResourceManager : found remove.vm with loader org.apache.velocity.runtime.resource.loader.ClasspathResourceLoader
2015-01-12 21:25:14,620 - ResourceManager : found removeall.vm with loader org.apache.velocity.runtime.resource.loader.ClasspathResourceLoader
2015-01-12 21:25:14,628 - ResourceManager : found get.vm with loader org.apache.velocity.runtime.resource.loader.ClasspathResourceLoader
2015-01-12 21:25:14,628 - Null reference [template 'get.vm', line 235, column 38] : $type cannot be resolved.
2015-01-12 21:25:14,628 - Null reference [template 'get.vm', line 247, column 35] : $type cannot be resolved.
2015-01-12 21:25:14,628 - Null reference [template 'get.vm', line 257, column 38] : $type cannot be resolved.
2015-01-12 21:25:14,629 - Null reference [template 'get.vm', line 267, column 35] : $type cannot be resolved.
2015-01-12 21:25:14,632 - ResourceManager : found add.vm with loader org.apache.velocity.runtime.resource.loader.ClasspathResourceLoader
2015-01-12 21:25:14,634 - ResourceManager : found set.vm with loader org.apache.velocity.runtime.resource.loader.ClasspathResourceLoader
